<svg width="1920" height="6328" viewBox="0 0 1920 6328" fill="none" xmlns="http://www.w3.org/2000/svg">
<path fill-rule="evenodd" clip-rule="evenodd" d="M0.877686 1525.85C0.877686 1525.85 117.337 1197.35 410.434 1135.6C703.53 1073.85 881.79 1186.03 1051.95 1120.86C1222.12 1055.68 1266.81 874.684 1361.17 795.274C1455.52 715.863 1619.7 746.688 1709.88 795.274C1800.05 843.859 1920 842.838 1920 842.838V358.81L1266.86 0L1109.37 8.87526C1109.37 8.87526 1274.49 180.89 1318.04 308.87C1361.59 436.851 1256.15 448.685 1189.16 611.544C1122.17 774.404 1122.17 986.615 860.485 1013.98C598.795 1041.34 483.566 876.608 291.29 876.608C99.014 876.608 0.877686 1047.1 0.877686 1047.1V1525.85Z" fill="#171717"/>
<path fill-rule="evenodd" clip-rule="evenodd" d="M1919.12 2882.08C1919.12 2882.08 1812.9 3047.78 1764.75 3053.68C1271.9 3113.99 1188.73 3059.53 1063.72 3203.19C919.932 3368.45 801.157 3529.57 493.298 3492.78C185.439 3455.98 0 3673.98 0 3673.98V3324.98C0 3324.98 174.777 3164.24 547.75 3324.98C920.722 3485.73 930.857 3135.25 965.558 3078.51C1000.26 3021.77 1050.46 2960.64 1223.96 2917.83C1252 2910.91 1599.16 2917.24 1845.85 2727.99C1928.07 2664.92 1919.12 2404 1919.12 2404V2779.63V2882.08Z" fill="#171717"/>
<path fill-rule="evenodd" clip-rule="evenodd" d="M0 1564C87.8214 1810.31 202.609 1936.65 344.364 1943.02C554.869 1952.49 695.394 1978.69 751.945 2141.4L753.633 2146.37C809.04 2313.52 961.909 2353.63 1126.6 2322.26C1167.77 2314.41 1208.83 2304.67 1249.74 2294.51L1259.55 2292.07L1269.36 2289.61L1303.63 2280.99L1313.4 2278.55C1414.37 2253.3 1514.13 2230.3 1611.75 2232.32C1716.71 2234.48 1819.17 2258.21 1919.12 2303.52V2514.98C1809.17 2420.37 1682.56 2364.59 1539.3 2347.66C1423.25 2333.94 1304.49 2359.56 1189.26 2386.03L1157.35 2393.38C1070.4 2413.34 985.826 2431.75 906.355 2431.75C807.499 2431.75 731.318 2405.73 660.799 2380.23L640.206 2372.77C580.183 2351.07 523.134 2331.7 458.135 2331.7C373.932 2331.7 320.768 2359.19 272.171 2385.68L261.998 2391.24C229.096 2409.18 197.462 2425.72 158.616 2431.75C92.2131 2442.05 39.3409 2442.05 0 2431.75V1564Z" fill="#171717"/>
<path fill-rule="evenodd" clip-rule="evenodd" d="M0 4963.13C0 4963.13 43.4181 5191.72 240.737 5229.63C438.056 5267.54 577.187 5179.86 812.591 5286.92C1048 5393.98 1189.35 5403.55 1384.31 5309.96C1579.28 5216.36 1691.53 5220.19 1772.01 5244.49C1852.49 5268.78 1918.24 5393.98 1918.24 5393.98L1919.12 5133.67C1919.12 5133.67 1777.47 5006.16 1512.8 5067.18C1248.12 5128.21 1177.72 5298.97 986.549 5286.92C795.379 5274.88 675.081 5107.87 542.05 5019.5C409.019 4931.12 371.741 4842.26 246.231 4677.17C120.722 4512.07 0 4491 0 4491L0 4963.13Z" fill="#171717"/>
<path fill-rule="evenodd" clip-rule="evenodd" d="M0.877686 6040.6C0.877686 6040.6 203.199 5864.31 389.741 5844.62C576.283 5824.93 772.647 5913.99 967.557 5883.99C1162.47 5853.99 1191.67 5651.92 1422.35 5597C1653.03 5542.07 1748.85 5568.46 1819.97 5500C1891.08 5431.53 1919.12 5365 1919.12 5365V5623C1919.12 5623 1869.63 5692.99 1734.45 5692.99C1599.27 5692.99 1469.33 5784.99 1372.37 5873.98C1275.42 5962.97 1021.11 6045.93 818.154 6008.55C615.201 5971.18 588.28 5943.99 491.775 5919.62C395.27 5895.25 290.751 5948.67 195.247 6040.6C99.7436 6132.52 0.877686 6327.09 0.877686 6327.09V6040.6Z" fill="#171717"/>
<path d="M0 6141.55C0 6141.55 123.293 5885.9 370.331 5896.9C617.368 5907.9 695.682 6004.68 902.587 5964.29C1109.49 5923.9 1318.89 5679.91 1433.34 5655.91C1547.8 5631.91 1660.96 5698.74 1766.88 5631.91C1872.79 5565.07 1920 5431.91 1920 5431.91" stroke="white" stroke-width="3"/>
</svg>
