<svg width="1920" height="963" viewBox="0 0 1920 963" fill="none" xmlns="http://www.w3.org/2000/svg">
<path fill-rule="evenodd" clip-rule="evenodd" d="M0.877686 675.595C0.877686 675.595 203.199 499.312 389.741 479.619C576.283 459.925 772.647 548.991 967.557 518.991C1162.47 488.992 1191.67 286.924 1422.35 231.996C1653.03 177.069 1748.85 203.461 1819.97 134.998C1891.08 66.5343 1919.12 0 1919.12 0V257.996C1919.12 257.996 1869.63 327.995 1734.45 327.995C1599.27 327.995 1469.33 419.993 1372.37 508.981C1275.42 597.97 1021.11 680.927 818.154 643.552C615.201 606.176 588.28 578.99 491.775 554.622C395.27 530.253 290.751 583.667 195.247 675.595C99.7436 767.523 0.877686 962.091 0.877686 962.091V675.595Z" fill="#171717"/>
<path d="M0 776.55C0 776.55 123.293 520.902 370.331 531.901C617.368 542.901 695.682 639.681 902.587 599.291C1109.49 558.901 1318.89 314.905 1433.34 290.905C1547.8 266.906 1660.96 333.74 1766.88 266.906C1872.79 200.072 1920 66.9092 1920 66.9092" stroke="white" stroke-width="3"/>
</svg>
