<svg width="13" height="13" viewBox="0 0 13 13" fill="none" xmlns="http://www.w3.org/2000/svg">
<path d="M6.5 11.9C3.51766 11.9 1.1 9.48234 1.1 6.5C1.1 3.51766 3.51766 1.1 6.5 1.1C9.48234 1.1 11.9 3.51766 11.9 6.5C11.9 9.48234 9.48234 11.9 6.5 11.9Z" stroke="#FFBC40" stroke-width="1.2"/>
<path d="M6.50037 11.883L6.48499 1.18863" stroke="#FFBC40" stroke-width="1.2"/>
<path d="M1.14551 6.54352L11.8399 6.52814" stroke="#FFBC40" stroke-width="1.2"/>
</svg>
