<svg width="14" height="14" viewBox="0 0 14 14" fill="none" xmlns="http://www.w3.org/2000/svg">
<g id="8">
<circle id="Oval" cx="4.25244" cy="9.89365" r="3" stroke="#3EC6FF" stroke-width="1.2"/>
<path id="Path 51" d="M13.2422 0.90387L6.72583 7.5268" stroke="#3EC6FF" stroke-width="1.2"/>
<path id="Path 51 Copy" d="M9.25244 0.893636L13.2422 0.90385" stroke="#3EC6FF" stroke-width="1.2"/>
<path id="Path 51 Copy 2" d="M13.2524 0.106384L13.2422 4.89364" stroke="#3EC6FF" stroke-width="1.2"/>
</g>
</svg>
