<svg width="10" height="8" viewBox="0 0 10 8" fill="none" xmlns="http://www.w3.org/2000/svg">
<path id="Path Copy 3" d="M3.18621 0.294814C3.57005 -0.0982715 4.16505 -0.0982715 4.54903 0.294814C4.93286 0.6879 4.93286 1.29724 4.54903 1.69046L3.26306 3.00742H9.04032C9.57774 3.00742 10 3.43985 10 3.99022C10 4.54059 9.57774 4.97302 9.04032 4.97302H3.26306L4.56815 6.30957C4.95199 6.70265 4.95199 7.31199 4.56815 7.70522C4.37616 7.90183 4.12673 8 3.89631 8C3.64675 8 3.39731 7.90169 3.22446 7.70522L0.287848 4.69784C0.115137 4.52097 0 4.26541 0 4.00981C0 3.75421 0.095995 3.49879 0.287848 3.32178L3.18621 0.294814Z" fill="#FFBC40"/>
</svg>
