<svg width="6" height="5" viewBox="0 0 6 5" fill="none" xmlns="http://www.w3.org/2000/svg">
<path id="Path 139 Copy 5" fill-rule="evenodd" clip-rule="evenodd" d="M0 4.32378H6L3 0.676208L0 4.32378Z" fill="#3EC6FF"/>
</svg>
