<svg xmlns="http://www.w3.org/2000/svg" width="1920" height="1526" viewBox="0 0 1920 1526" fill="none">
  <path fill-rule="evenodd" clip-rule="evenodd" d="M0.877686 1525.85C0.877686 1525.85 117.337 1197.35 410.434 1135.6C703.53 1073.85 881.79 1186.03 1051.95 1120.86C1222.12 1055.68 1266.81 874.684 1361.17 795.274C1455.52 715.863 1619.7 746.688 1709.88 795.274C1800.05 843.859 1920 842.838 1920 842.838V358.81L1266.86 0L1109.37 8.87526C1109.37 8.87526 1274.49 180.89 1318.04 308.87C1361.59 436.851 1256.15 448.685 1189.16 611.544C1122.17 774.404 1122.17 986.615 860.485 1013.98C598.795 1041.34 483.566 876.608 291.29 876.608C99.014 876.608 0.877686 1047.1 0.877686 1047.1V1525.85Z" fill="#171717" />
</svg>
