<svg width="375" height="301" viewBox="0 0 375 301" fill="none" xmlns="http://www.w3.org/2000/svg">
<path d="M0 63.1676C0 63.1676 39.5644 87.4299 58.2819 179.401C76.9995 271.372 168.748 229.31 262.899 268.102C357.049 306.894 416.271 306.921 463.27 286.23C510.27 265.539 583.866 217.049 636.309 220.292C688.751 223.535 721.908 280.041 721.908 280.041" stroke="white" stroke-width="2"/>
<path fill-rule="evenodd" clip-rule="evenodd" d="M293.472 204.086C293.472 204.086 315.799 161.765 308.772 142.662C301.744 123.56 284.99 127.737 282.198 107.786C279.405 87.835 275.91 58.831 243.843 57.628C211.777 56.4251 216.869 45.5507 204.81 36.5055C192.75 27.4604 164.178 15.0469 138.223 42.1308C112.268 69.2148 125.492 77.1729 107.046 87.206C88.601 97.2391 66.0046 100.103 68.0717 119.809C70.1387 139.515 72.9905 151.898 55.2987 168.235C37.6068 184.572 42.5766 211.619 68.0717 217.8C93.5668 223.982 148.212 219.489 179.994 217.8C211.777 216.112 262.279 237.326 277.876 227.913C293.472 218.5 293.472 204.086 293.472 204.086Z" fill="#F13C60"/>
<path fill-rule="evenodd" clip-rule="evenodd" d="M289.528 177.466C289.528 177.466 298.742 162.111 284.643 149.433C270.543 136.754 260.796 123.035 255.316 114.557C249.835 106.079 249.039 77.4901 228.027 76.7378C207.014 75.9854 182.517 54.544 176.382 56.0486C170.247 57.5533 139.431 76.7378 130.282 83.5087C121.132 90.2797 121.759 107.581 114.858 111.069C107.958 114.557 89.5275 127.412 85.3934 142.567C81.2593 157.722 60.0033 178.032 65.5419 191.927C71.0804 205.822 170.138 228.098 211.793 216.96C253.449 205.822 289.528 177.466 289.528 177.466Z" fill="#231C31"/>
<path d="M294.039 174.661C294.039 174.661 293.663 161.082 285.207 150.672C276.751 140.263 263.22 126.392 259.45 106.079C255.681 85.7658 251.03 71.6596 236.142 69.9669C221.255 68.2741 199.692 53.0763 188.037 52.5876C176.383 52.099 140.69 62.4666 131.864 76.1851C123.038 89.9037 126.414 97.0787 120.846 103.822C115.278 110.565 99.7167 107.6 91.6106 120.985C83.5046 134.37 82.3934 149.777 76.7373 154.682C71.0813 159.587 66.8631 178.679 66.8631 178.679" stroke="white"/>
<path fill-rule="evenodd" clip-rule="evenodd" d="M299.597 238.048C287.394 246.446 270.445 238.912 244.938 253.509C219.431 268.107 183.301 288.314 147.895 278.326C136.683 275.163 122.879 257.822 106.643 250.059C71.6035 233.306 48.1717 231.776 48.1717 209.195C48.1717 187.814 86.2758 167.532 89.459 157.003C92.6422 146.473 110.653 112.091 148.943 114.472C187.233 116.853 245.992 141.901 264.289 161.316C282.585 180.731 320.678 170.509 320.678 190.767C320.678 211.025 311.801 229.649 299.597 238.048Z" fill="#FFBC40"/>
<path fill-rule="evenodd" clip-rule="evenodd" d="M294.791 199.292C300.179 205.605 307.569 240.383 280.509 234.683C253.45 228.984 226.052 242.211 212.716 252.407C199.381 262.603 156.911 265.581 129.982 250.132C103.053 234.683 67.8502 225.156 77.8548 212.389C87.8593 199.621 112.852 154.679 124.436 146.494C136.019 138.309 185.188 125.976 214.786 143.08C244.385 160.185 251.122 181.482 256.76 183.213C262.397 184.944 289.402 192.978 294.791 199.292Z" fill="#DF9917"/>
<path fill-rule="evenodd" clip-rule="evenodd" d="M251.726 234.076C237.956 241.353 185.479 223.767 185.479 223.767L179.492 221.333C179.492 221.333 156.502 230.663 137.835 234.076C120.431 237.259 114.241 225.545 112.353 221.973C112.216 221.714 112.102 221.497 112.008 221.333C111.431 220.326 109.363 222.333 106.582 225.033C102.639 228.859 97.2639 234.076 92.6689 234.076C84.8317 234.076 92.6689 217.692 97.3315 209.083C101.206 201.929 104.341 202.236 107.488 202.544C108.128 202.607 108.768 202.67 109.415 202.67C112.134 202.67 121.176 176.758 127.209 159.471C129.673 152.413 131.634 146.792 132.459 144.959C133.565 142.501 133.811 135.891 134.095 128.258C134.543 116.25 135.084 101.712 139.215 96.8298C143.283 92.0207 149.678 89.3877 154.56 87.3777C157.785 86.0501 160.349 84.9944 161.146 83.7629C161.481 83.2463 161.966 82.583 162.527 81.8169C165.326 77.9925 169.999 71.609 167.097 68.1538C163.614 64.0066 161.387 33.4821 164.212 26.9563C167.037 20.4305 190.808 14.2694 197.091 29.0153C202.969 42.8121 197.847 54.12 193.971 62.6785C193.705 63.2673 193.444 63.843 193.193 64.4057C189.295 73.1473 190.749 81.1541 203.696 83.7629C216.642 86.3718 224.033 94.3003 226.565 101.77C227.607 104.846 228.268 112.88 228.977 121.509C229.99 133.832 231.103 147.368 233.571 149.413C236.686 151.994 245.182 168.412 252.237 182.044C254.684 186.775 256.959 191.169 258.774 194.534C262.484 201.409 265.722 203.877 268.196 205.763C270.423 207.46 272.032 208.687 272.811 212.23C273.786 216.667 273.026 217.511 272.249 218.372C271.716 218.962 271.176 219.561 271.182 221.333C271.198 225.687 271.167 234.076 264.829 234.076C262.604 234.076 262.172 231.516 261.37 226.769C261.104 225.193 260.797 223.377 260.371 221.333C259.643 217.844 255.972 209.083 255.972 209.083C255.972 209.083 222.597 172.003 222.597 167.898C222.597 163.793 218.077 130.214 213.843 136.473C209.609 142.732 208.252 168.344 211.4 180.015C214.135 190.155 219.432 192.606 233.913 199.306C236.098 200.317 238.492 201.424 241.118 202.67C261.148 212.169 265.497 226.799 251.726 234.076ZM152.267 148.028C151.977 145.34 151.816 142.389 151.676 139.823L151.676 139.822C151.616 138.717 151.56 137.684 151.499 136.774C151.408 135.426 151.309 134.375 151.179 133.741C151.052 134.091 150.893 134.679 150.699 135.498C150.469 136.475 150.198 137.736 149.879 139.226L149.833 139.442C149.203 142.387 148.394 146.172 147.355 150.322C145.23 158.818 142.134 168.888 137.62 176.466C133.139 183.99 128.641 191.124 125.264 196.376C123.576 199.002 122.167 201.158 121.18 202.658C120.914 203.063 120.678 203.421 120.475 203.727C120.96 203.509 121.557 203.235 122.243 202.907C124.185 201.979 126.841 200.625 129.696 198.922C135.426 195.503 141.883 190.72 145.046 185.195C148.232 179.629 150.248 172.247 151.36 165.278C152.473 158.311 152.676 151.809 152.267 148.028ZM151.021 133.225C151.021 133.225 151.022 133.227 151.026 133.232C151.023 133.226 151.021 133.224 151.021 133.225ZM151.418 133.267C151.421 133.264 151.423 133.262 151.423 133.262C151.423 133.261 151.421 133.263 151.418 133.267ZM118.878 204.499C118.878 204.499 118.878 204.499 119.253 204.75C119.424 205.169 119.424 205.168 119.425 205.168L119.425 205.168L119.428 205.167L119.44 205.162L119.483 205.144C119.522 205.128 119.579 205.104 119.652 205.073C119.8 205.01 120.017 204.918 120.296 204.795C120.852 204.551 121.652 204.19 122.632 203.722C124.593 202.785 127.274 201.419 130.159 199.698C135.909 196.267 142.544 191.385 145.83 185.644C149.094 179.943 151.132 172.439 152.252 165.421C153.373 158.402 153.585 151.816 153.165 147.931C152.878 145.268 152.719 142.361 152.58 139.805C152.52 138.692 152.463 137.645 152.4 136.714C152.299 135.203 152.181 133.959 151.997 133.269C151.95 133.095 151.892 132.925 151.813 132.788C151.745 132.67 151.591 132.454 151.309 132.423C151.019 132.39 150.82 132.576 150.724 132.688C150.615 132.816 150.52 132.987 150.434 133.176C150.252 133.575 150.05 134.319 149.82 135.291C149.587 136.279 149.314 137.55 148.996 139.037L148.95 139.25C148.32 142.196 147.514 145.968 146.479 150.103C144.357 158.583 141.286 168.545 136.844 176.004C132.37 183.516 127.878 190.641 124.504 195.887C122.818 198.51 121.411 200.664 120.426 202.161C119.933 202.91 119.546 203.495 119.282 203.892C119.15 204.091 119.049 204.243 118.981 204.345L118.904 204.46L118.884 204.489L118.88 204.497L118.878 204.499L118.878 204.499ZM119.253 204.75L118.878 204.499L118.055 205.728L119.424 205.169L119.253 204.75Z" fill="#754DC8"/>
<path fill-rule="evenodd" clip-rule="evenodd" d="M238.489 225.197C238.489 225.197 232.87 232.06 215.389 227.175C197.907 222.291 189.003 216.188 176.804 218.334C164.605 220.481 150.147 230.042 136.19 230.042C122.234 230.042 115.168 223.456 118.701 220.895C122.234 218.334 121.267 226.101 139.621 220.895C157.975 215.689 160.368 213.827 159.171 204.543C157.975 195.258 149.062 200.287 152.914 190.148C156.765 180.009 162.946 174.707 165.063 157.38C167.18 140.053 160.616 119.613 156.765 113.656C152.914 107.699 174.256 88.4703 180.636 87.0548C187.016 85.6393 209.729 105.03 209.826 113.656C209.924 122.282 200.766 135.733 200.766 150.957C200.766 166.181 198.487 177.464 205.861 187.766C213.235 198.068 217.37 200.03 211.615 202.115C205.861 204.2 201.988 202.944 203.925 211.92C205.861 220.895 215.799 228.404 223.775 226.801C231.751 225.197 238.489 224.276 238.489 224.276V225.197Z" fill="#60419F"/>
<path fill-rule="evenodd" clip-rule="evenodd" d="M166.59 73.5877C166.163 76.2197 165.188 78.0823 163.421 79.191C162.322 79.8811 161.304 80.6636 160.3 81.4634C160.056 81.6581 159.813 81.8532 159.569 82.0486C158.802 82.6649 158.032 83.284 157.199 83.9009C155.03 85.5073 152.497 87.0538 148.923 88.1569C145.189 89.3096 142.423 90.4258 140.354 91.8148C138.248 93.2286 136.888 94.9085 135.93 97.1196C135.661 97.7413 135.446 98.6268 135.264 99.6456C135.079 100.683 134.917 101.93 134.773 103.312C134.487 106.079 134.274 109.439 134.116 112.863C133.801 119.714 133.707 126.874 133.707 130.171C133.707 132.201 133.119 135.076 131.873 138.845C130.633 142.598 128.765 147.167 126.262 152.561L125.683 153.808L127.048 153.975C130.24 154.364 132.39 154.767 133.581 155.161C132.805 155.341 131.908 155.136 130.798 154.818C130.744 154.803 130.689 154.787 130.632 154.77C130.035 154.598 129.349 154.4 128.716 154.347C127.985 154.285 127.143 154.397 126.465 155.069C126.253 155.28 126.075 155.578 125.934 155.84C125.778 156.13 125.61 156.488 125.432 156.896C125.075 157.713 124.655 158.785 124.192 160.026C123.444 162.028 122.569 164.51 121.642 167.137C121.419 167.767 121.194 168.405 120.967 169.047C119.79 172.374 118.56 175.809 117.412 178.749C116.255 181.714 115.212 184.091 114.416 185.357C112.644 188.172 111.432 191.349 111.091 194.176C111.036 194.633 111.003 195.09 110.995 195.541C110.975 195.54 110.955 195.54 110.935 195.54C110.581 195.54 110.183 195.685 109.92 196.058C109.701 196.368 109.665 196.713 109.665 196.943C109.665 197.169 109.572 197.42 109.267 197.711C108.948 198.015 108.438 198.317 107.736 198.581C106.335 199.108 104.399 199.398 102.412 199.398C100.109 199.398 97.741 200.266 95.9389 201.692C94.1357 203.119 92.8056 205.188 92.8056 207.614C92.8056 208.979 92.6379 210.399 92.4705 211.816C92.3953 212.453 92.3201 213.089 92.2603 213.719C92.1674 214.698 92.1138 215.665 92.1913 216.515C92.2672 217.35 92.4805 218.22 93.0499 218.877C93.3053 219.172 93.6566 219.398 94.0946 219.457C94.4339 219.503 94.7505 219.439 95.0252 219.331C94.8517 219.865 94.6874 220.449 94.5329 221.052C94.2031 222.341 93.9025 223.787 93.6487 225.168C93.3947 226.551 93.1857 227.881 93.0398 228.941C92.8983 229.97 92.8056 230.818 92.8056 231.193C92.8056 231.671 93.0298 232.082 93.3992 232.344C93.7138 232.566 94.0729 232.639 94.3476 232.665C94.907 232.717 95.5741 232.612 96.1961 232.456C97.448 232.142 98.9479 231.51 99.8545 230.815C100.225 230.531 100.568 230.235 100.879 229.968L100.975 229.884C101.321 229.587 101.624 229.331 101.93 229.113C102.522 228.692 103.068 228.454 103.756 228.454C104.048 228.454 104.287 228.352 104.437 228.273C104.6 228.187 104.749 228.078 104.882 227.97C105.146 227.752 105.43 227.46 105.722 227.128C106.31 226.46 107.021 225.524 107.804 224.425C108.026 224.114 108.255 223.787 108.49 223.447C108.765 224.239 109.077 224.989 109.372 225.695C109.498 225.999 109.622 226.295 109.737 226.583C110.78 229.181 112.666 231.978 115.976 234.269C119.28 236.557 123.953 238.305 130.518 238.897C137.145 239.495 145.869 237.771 154.008 235.478C162.18 233.174 169.89 230.258 174.54 228.382C176.365 227.645 178.357 226.777 180.392 225.858L180.723 225.98C207.238 235.809 227.366 240.168 241.002 238.897C247.722 238.271 252.878 237.391 256.424 236.239C258.195 235.663 259.625 235.001 260.655 234.224C261.496 233.59 262.128 232.834 262.407 231.944L263.853 231.417C263.989 231.842 264.203 232.26 264.455 232.657C265.061 233.613 266.029 234.676 267.307 235.841L268.654 234.362C267.431 233.247 266.611 232.324 266.144 231.586C265.656 230.816 265.674 230.448 265.713 230.327L266.335 228.382L264.418 229.082L261.205 230.254L260.624 230.466L260.554 231.081C260.505 231.52 260.227 232.042 259.451 232.627C258.671 233.215 257.476 233.794 255.806 234.337C252.473 235.42 247.492 236.283 240.816 236.906C228.05 238.096 209.062 234.164 183.755 224.963C189.121 222.617 193.118 220.816 195.742 219.561C197.225 218.852 198.3 218.302 198.937 217.921C199.098 217.825 199.245 217.731 199.368 217.642C199.476 217.564 199.626 217.449 199.748 217.303C199.804 217.235 199.919 217.085 199.978 216.867C200.05 216.6 200.032 216.228 199.768 215.917C199.556 215.668 199.295 215.592 199.187 215.566C199.059 215.536 198.943 215.531 198.865 215.531C198.619 215.531 198.358 215.588 198.137 215.646C197.898 215.71 197.626 215.8 197.33 215.907C196.738 216.121 195.999 216.427 195.155 216.796C193.463 217.535 191.287 218.556 188.893 219.686C188.562 219.842 188.227 220.001 187.889 220.161C183.309 222.325 178.075 224.799 173.792 226.527C169.177 228.389 161.541 231.277 153.466 233.553C145.358 235.838 136.936 237.468 130.698 236.906C124.398 236.337 120.076 234.675 117.114 232.625C114.158 230.578 112.505 228.11 111.593 225.838C111.465 225.519 111.335 225.204 111.207 224.893C110.705 223.677 110.222 222.507 109.941 221.303C110.986 219.729 112.097 218 113.204 216.249C114.969 213.46 116.73 210.604 118.201 208.217L118.56 207.635C118.635 207.514 118.708 207.395 118.781 207.277C123.437 203.91 128.717 200.628 133.522 197.641C134.068 197.301 134.608 196.966 135.14 196.634C138 194.852 140.641 193.186 142.783 191.699C144.9 190.229 146.627 188.868 147.582 187.69C148.097 187.054 148.586 186.129 149.048 185.058C149.518 183.972 149.988 182.67 150.448 181.237C151.369 178.37 152.268 174.922 153.057 171.5C153.846 168.076 154.527 164.664 155.012 161.862C155.492 159.096 155.795 156.839 155.795 155.78C155.795 153.792 155.139 147.41 154.497 141.416C154.362 140.162 154.228 138.922 154.1 137.735C153.919 136.063 153.75 134.499 153.608 133.155C153.509 132.219 153.426 131.406 153.361 130.746C153.386 130.682 153.41 130.617 153.434 130.553C153.48 130.429 153.526 130.307 153.572 130.184C154.733 127.088 155.795 124.26 155.795 121.088C155.795 120.328 155.759 119.715 155.646 119.315C155.615 119.206 155.564 119.06 155.474 118.915C155.389 118.778 155.203 118.538 154.864 118.428C154.489 118.307 154.161 118.417 153.963 118.536C153.783 118.644 153.665 118.781 153.598 118.867C153.36 119.177 153.174 119.668 153.029 120.099C152.867 120.581 152.698 121.176 152.534 121.817C152.204 123.101 151.876 124.626 151.631 125.934C151.394 127.197 151.21 128.377 151.21 128.903C151.21 129.145 151.253 129.7 151.326 130.479C150.149 133.647 148.854 137.399 148.226 142.415C146.914 152.897 145.447 160.982 141.961 166.929C138.364 173.067 121.869 198.994 120.072 201.491C119.635 202.098 118.607 203.75 117.286 205.891C116.864 206.198 116.448 206.506 116.037 206.814C110.374 211.07 108.146 214.719 107.754 218.106C107.642 219.068 107.684 219.991 107.823 220.873C107.242 221.738 106.689 222.544 106.175 223.265C105.405 224.347 104.74 225.216 104.22 225.807C103.958 226.105 103.756 226.306 103.612 226.425C103.596 226.437 103.582 226.448 103.57 226.458C102.421 226.501 101.53 226.943 100.771 227.484C100.381 227.761 100.014 228.074 99.6716 228.368L99.5776 228.449C99.2608 228.721 98.9598 228.98 98.637 229.228C98.0165 229.704 96.7964 230.244 95.71 230.516C95.3596 230.604 95.0669 230.652 94.8434 230.67C94.878 230.321 94.9368 229.827 95.0211 229.214C95.163 228.182 95.3673 226.883 95.6158 225.53C95.8646 224.176 96.1558 222.778 96.4705 221.548C96.7898 220.3 97.1179 219.288 97.4257 218.666C98.3822 216.735 99.6697 214.039 101.287 210.583L99.4953 209.695C97.7968 212.938 96.4357 215.159 95.4075 216.42C94.9706 216.956 94.6488 217.248 94.4404 217.387C94.326 217.172 94.229 216.839 94.183 216.334C94.123 215.675 94.1611 214.86 94.2514 213.908C94.302 213.374 94.3703 212.795 94.4415 212.191C94.6146 210.722 94.8056 209.101 94.8056 207.614C94.8056 205.961 95.7129 204.422 97.18 203.261C98.6483 202.099 100.584 201.398 102.412 201.398C104.556 201.398 106.747 201.09 108.44 200.453C109.284 200.136 110.064 199.715 110.647 199.159C110.917 198.902 111.151 198.608 111.326 198.28C111.669 199.455 112.293 200.476 113.286 201.205C113.505 201.365 113.708 201.5 113.89 201.6C114.041 201.682 114.297 201.811 114.591 201.832C114.754 201.843 115.027 201.829 115.293 201.651C115.582 201.459 115.711 201.179 115.755 200.956C115.825 200.601 115.708 200.288 115.664 200.175C115.544 199.864 115.324 199.507 115.096 199.177C114.856 198.829 114.56 198.445 114.243 198.066C113.879 197.631 113.465 197.176 113.053 196.779C112.966 196.086 112.97 195.296 113.077 194.416C113.376 191.935 114.463 189.036 116.108 186.422C117.02 184.972 118.125 182.423 119.275 179.476C120.436 176.503 121.676 173.041 122.853 169.714C123.081 169.067 123.308 168.426 123.53 167.795C124.457 165.168 125.325 162.709 126.066 160.725C126.525 159.494 126.93 158.463 127.265 157.697C127.432 157.313 127.576 157.01 127.696 156.787C127.796 156.602 127.854 156.519 127.871 156.495C127.877 156.487 127.878 156.485 127.873 156.49C127.978 156.386 128.136 156.305 128.547 156.339C128.974 156.376 129.473 156.519 130.139 156.71L130.248 156.741L130.262 156.745C131.552 157.114 133.459 157.661 135.209 156.644C135.484 156.485 135.783 156.269 135.992 155.971C136.232 155.629 136.357 155.163 136.175 154.674C136.022 154.262 135.705 153.994 135.454 153.826C135.184 153.647 134.858 153.497 134.506 153.367C133.318 152.925 131.343 152.53 128.647 152.164C130.887 147.26 132.597 143.028 133.772 139.473C135.039 135.639 135.707 132.522 135.707 130.171C135.707 126.898 135.8 119.769 136.114 112.955C136.271 109.547 136.482 106.23 136.763 103.518C136.903 102.162 137.06 100.968 137.233 99.9968C137.41 99.006 137.593 98.312 137.765 97.9145C138.573 96.0489 139.687 94.6719 141.469 93.4753C143.288 92.254 145.826 91.2062 149.513 90.068C153.361 88.8802 156.096 87.2072 158.389 85.508C159.257 84.8655 160.069 84.2126 160.843 83.5913C161.081 83.4001 161.315 83.2118 161.546 83.0278C162.539 82.237 163.485 81.5127 164.485 80.8849C166.917 79.3579 168.085 76.8581 168.564 73.9084C169.04 70.9786 168.862 67.4654 168.489 63.7021L166.499 63.8994C166.87 67.6483 167.021 70.9359 166.59 73.5877ZM114.905 199.873C114.904 199.872 114.901 199.871 114.895 199.868C114.903 199.872 114.906 199.873 114.905 199.873ZM113.797 200.893C113.798 200.894 113.798 200.895 113.798 200.896C113.804 200.909 113.806 200.916 113.805 200.917C113.805 200.918 113.802 200.91 113.797 200.893ZM109.814 217.843C110.163 215.928 111.316 213.693 114.108 211.036C113.267 212.391 112.391 213.794 111.514 215.18C110.943 216.083 110.373 216.976 109.814 217.843ZM121.493 202.952C121.572 202.834 121.639 202.736 121.695 202.66C123.544 200.09 140.075 174.103 143.687 167.941C147.41 161.588 148.904 153.102 150.21 142.664C150.569 139.798 151.154 137.365 151.815 135.204C151.908 136.072 152.008 136.996 152.112 137.955C152.24 139.141 152.374 140.38 152.508 141.629C153.158 147.701 153.795 153.931 153.795 155.78C153.795 156.638 153.526 158.722 153.042 161.521C152.563 164.285 151.889 167.662 151.108 171.051C150.326 174.442 149.442 177.831 148.544 180.626C148.095 182.023 147.647 183.258 147.212 184.265C146.77 185.288 146.368 186.011 146.028 186.431C145.273 187.363 143.765 188.582 141.643 190.056C139.547 191.511 136.946 193.153 134.082 194.937C133.55 195.268 133.008 195.605 132.46 195.946C128.946 198.13 125.137 200.498 121.493 202.952ZM153.722 119.861C153.721 119.86 153.721 119.859 153.721 119.858C153.72 119.856 153.72 119.857 153.721 119.86M211.672 85.046C206.781 83.6208 201.442 81.9389 198.173 80.3031L197.278 82.0916C200.735 83.8219 206.25 85.5494 211.113 86.9662C212.541 87.3821 213.936 87.778 215.213 88.1401C216.108 88.3941 216.945 88.6315 217.692 88.8474C219.567 89.3886 220.844 89.7857 221.336 90.0173C221.451 90.0711 221.688 90.2422 222.04 90.6242C222.376 90.9886 222.761 91.4844 223.181 92.101C224.02 93.3328 224.956 94.9868 225.866 96.8939C227.689 100.716 229.362 105.455 229.957 109.707C231.178 118.434 232.505 138.953 232.505 142.54C232.505 142.96 232.206 143.484 231.39 144.096C230.606 144.683 229.558 145.189 228.551 145.612C228.107 145.799 227.686 145.963 227.308 146.111C227.263 146.129 227.217 146.147 227.173 146.164C226.783 146.317 226.402 146.467 226.143 146.597C226.044 146.647 225.822 146.759 225.651 146.941C225.573 147.023 225.336 147.294 225.352 147.718C225.37 148.209 225.7 148.478 225.861 148.577C226.02 148.675 226.177 148.715 226.26 148.734C226.358 148.756 226.457 148.769 226.546 148.777C226.726 148.795 226.943 148.801 227.19 148.801C229.072 148.801 230.714 148.155 231.991 147.653C232.143 147.593 232.29 147.535 232.432 147.481C233.91 146.912 234.583 146.814 235.132 147.192C235.132 147.192 235.134 147.194 235.138 147.197C235.142 147.2 235.148 147.205 235.156 147.211C235.172 147.224 235.192 147.243 235.218 147.268C235.27 147.319 235.335 147.388 235.413 147.479C235.569 147.661 235.759 147.908 235.98 148.219C236.422 148.841 236.958 149.678 237.567 150.686C238.782 152.699 240.254 155.345 241.783 158.21C244.841 163.938 248.103 170.492 249.956 174.508C251.106 176.999 252.47 180.237 253.877 183.575C254.742 185.63 255.624 187.723 256.482 189.703C257.6 192.284 258.675 194.669 259.605 196.483C260.07 197.389 260.509 198.175 260.909 198.779C261.108 199.081 261.309 199.354 261.509 199.581C261.698 199.796 261.937 200.026 262.221 200.178C262.603 200.382 263.214 200.87 263.989 201.635C264.744 202.38 265.597 203.331 266.458 204.392C268.188 206.525 269.901 209.043 270.917 211.176C270.98 211.307 271.05 211.452 271.127 211.608C271.316 211.996 271.539 212.454 271.752 212.936C272.06 213.633 272.275 214.228 272.324 214.581C272.523 216.032 272.741 217.013 272.888 217.643C272.908 217.728 272.926 217.802 272.942 217.869C272.962 217.953 272.978 218.023 272.992 218.083C272.954 218.159 272.916 218.239 272.884 218.307L272.878 218.322C272.783 218.524 272.695 218.714 272.595 218.882C272.593 218.885 272.591 218.889 272.589 218.892C272.004 218.46 271.155 217.501 269.958 214.856C269.821 214.554 269.522 214.088 269.214 213.632C268.888 213.148 268.492 212.588 268.113 212.06C267.733 211.531 267.366 211.029 267.093 210.66C266.957 210.476 266.845 210.324 266.766 210.218L266.675 210.096L266.651 210.063L266.644 210.055L266.643 210.053L266.642 210.052L266.642 210.052L265.841 210.651L264.985 211.168L264.986 211.168L264.987 211.17L264.992 211.179L265.012 211.212L265.088 211.339C265.155 211.45 265.25 211.609 265.365 211.803C265.596 212.192 265.908 212.721 266.231 213.281C266.554 213.842 266.886 214.43 267.159 214.938C267.444 215.467 267.631 215.85 267.697 216.032C267.794 216.296 267.894 216.567 267.995 216.841C268.555 218.362 269.155 219.992 269.466 221.115C269.844 222.476 269.84 223.563 269.746 224.395C269.698 224.817 269.627 225.178 269.562 225.506L269.551 225.566C269.496 225.838 269.426 226.189 269.43 226.485C269.452 228.428 269.313 228.839 269.187 229.056C269.121 229.169 269.048 229.252 268.883 229.442C268.839 229.493 268.787 229.552 268.728 229.621C268.469 229.922 268.151 230.316 267.781 230.928C267.374 231.601 266.491 231.907 265.688 231.412C264.823 230.879 263.692 229.192 263.692 225.043C263.692 221.186 262.293 217.236 259.944 213.586C258.78 211.523 257.498 209.636 256.435 208.129C256.13 207.697 255.819 207.263 255.541 206.874C255.332 206.581 255.141 206.315 254.984 206.094C254.578 205.519 254.328 205.145 254.223 204.942C254.037 204.584 253.527 203.846 252.849 202.908C252.147 201.938 251.209 200.675 250.11 199.222C247.912 196.315 245.065 192.63 242.173 188.96C239.282 185.291 236.343 181.632 233.962 178.776C232.772 177.349 231.716 176.116 230.873 175.182C230.452 174.715 230.078 174.315 229.763 174C229.463 173.7 229.172 173.431 228.927 173.263C228.774 173.159 228.517 172.886 228.179 172.358C227.855 171.853 227.508 171.195 227.148 170.417C226.431 168.862 225.7 166.904 225.043 164.903C224.387 162.905 223.812 160.886 223.401 159.215C222.979 157.499 222.762 156.268 222.762 155.78C222.762 155.246 222.644 154.489 222.447 153.566C222.246 152.622 221.948 151.435 221.554 150.01C220.769 147.167 219.596 143.338 218.037 138.529C217.407 135.944 216.897 133.652 216.504 131.649C216.547 131.379 216.597 131.066 216.65 130.721C216.83 129.541 217.047 127.973 217.192 126.439C217.335 124.924 217.416 123.369 217.298 122.247C217.243 121.724 217.129 121.109 216.821 120.658C216.648 120.406 216.363 120.133 215.937 120.037C215.517 119.942 215.139 120.059 214.862 120.21C214.026 120.666 213.725 121.645 213.602 122.523C213.468 123.48 213.489 124.73 213.637 126.236C213.784 127.741 214.063 129.557 214.472 131.679C214.463 131.73 214.455 131.778 214.448 131.824C214.419 131.994 214.396 132.128 214.38 132.219L214.362 132.322L214.361 132.325L214.355 132.352L214.312 132.524C214.275 132.674 214.221 132.896 214.151 133.179C214.012 133.744 213.814 134.555 213.576 135.536C213.1 137.499 212.466 140.146 211.831 142.881C211.197 145.615 210.561 148.443 210.083 150.766C209.845 151.926 209.644 152.968 209.502 153.812C209.365 154.631 209.271 155.335 209.271 155.78C209.271 157.265 210.007 164.108 210.999 170.887C211.498 174.295 212.067 177.724 212.651 180.5C212.942 181.887 213.24 183.126 213.539 184.123C213.826 185.081 214.147 185.941 214.527 186.471C214.901 186.994 215.539 187.531 216.276 188.06C217.037 188.607 217.995 189.207 219.091 189.845C221.284 191.12 224.092 192.579 227.121 194.093C229.642 195.354 232.31 196.65 234.922 197.919C238.621 199.717 242.205 201.458 245.093 202.962C249.896 205.464 254.064 208.983 257.022 212.895C257.451 213.463 257.854 214.038 258.229 214.618C258.277 214.703 258.325 214.788 258.372 214.874C259.533 216.973 260.519 219.19 260.998 221.314C261.477 223.438 261.431 225.384 260.646 227.022C259.885 228.607 258.183 229.913 255.672 230.951C253.181 231.98 250.043 232.683 246.648 233.155C239.862 234.1 232.259 234.102 227.19 234.102C223.947 234.102 219.013 233.29 212.332 231.617C205.67 229.949 197.34 227.443 187.333 224.094L186.698 225.991C196.731 229.348 205.116 231.872 211.846 233.557C218.557 235.237 223.689 236.102 227.19 236.102H227.214C232.262 236.102 239.989 236.102 246.924 235.136C250.396 234.653 253.721 233.921 256.435 232.8C258.812 231.817 260.84 230.487 262.022 228.649C262.49 230.901 263.424 232.366 264.639 233.115C266.475 234.246 268.565 233.497 269.492 231.963C269.789 231.472 270.034 231.169 270.243 230.926C270.274 230.89 270.307 230.853 270.341 230.814C270.519 230.611 270.743 230.357 270.913 230.066C271.36 229.301 271.451 228.33 271.43 226.462C271.43 226.462 271.43 226.459 271.43 226.451C271.43 226.443 271.431 226.432 271.433 226.417C271.436 226.388 271.441 226.348 271.449 226.297C271.466 226.19 271.491 226.063 271.524 225.894L271.525 225.889C271.59 225.562 271.676 225.13 271.733 224.619C271.851 223.578 271.851 222.228 271.393 220.58C271.383 220.545 271.373 220.509 271.363 220.472C271.554 220.616 271.743 220.737 271.931 220.841C272.191 220.986 272.489 221.063 272.805 221.037C273.113 221.012 273.367 220.894 273.561 220.762C273.921 220.517 274.165 220.156 274.316 219.901C274.467 219.645 274.593 219.375 274.68 219.19L274.697 219.153C274.731 219.079 274.756 219.027 274.774 218.99C275.018 218.707 275.031 218.379 275.034 218.295C275.039 218.142 275.015 217.998 274.999 217.91C274.973 217.766 274.927 217.572 274.877 217.361C274.863 217.303 274.849 217.245 274.835 217.186C274.697 216.596 274.494 215.68 274.305 214.308C274.214 213.643 273.884 212.813 273.581 212.127C273.352 211.609 273.099 211.09 272.906 210.695C272.836 210.55 272.773 210.421 272.723 210.316C271.615 207.99 269.798 205.335 268.011 203.133C267.115 202.027 266.213 201.02 265.394 200.212C264.595 199.423 263.814 198.761 263.162 198.413C263.167 198.416 263.169 198.417 263.169 198.417C263.169 198.416 263.116 198.38 263.009 198.258C262.892 198.125 262.747 197.933 262.577 197.676C262.236 197.161 261.835 196.45 261.385 195.571C260.486 193.817 259.432 191.483 258.317 188.908C257.479 186.974 256.606 184.902 255.743 182.854C254.325 179.487 252.933 176.186 251.772 173.67C249.9 169.613 246.62 163.024 243.547 157.268C242.011 154.39 240.52 151.709 239.279 149.652C238.659 148.625 238.094 147.741 237.611 147.061C237.369 146.721 237.141 146.421 236.93 146.176C236.73 145.943 236.504 145.709 236.266 145.545C235.294 144.876 234.255 144.88 233.288 145.101C233.963 144.44 234.505 143.59 234.505 142.54C234.505 138.853 233.17 118.24 231.938 109.43C231.306 104.913 229.551 99.9725 227.671 96.0326C226.729 94.0589 225.744 92.3116 224.834 90.9753C224.38 90.3079 223.934 89.7279 223.511 89.269C223.104 88.8277 222.656 88.428 222.188 88.2077C221.516 87.8912 220.047 87.4455 218.247 86.9259C217.475 86.7029 216.633 86.4641 215.737 86.21C214.474 85.8518 213.105 85.4633 211.672 85.046ZM226.988 148.413C226.988 148.413 226.991 148.411 226.996 148.408C226.99 148.411 226.987 148.413 226.988 148.413ZM251.794 204.873C250.002 203.496 248.063 202.254 246.017 201.189C243.116 199.678 239.475 197.909 235.746 196.096C233.138 194.829 230.487 193.54 228.015 192.304C224.995 190.794 222.233 189.358 220.097 188.116C219.028 187.494 218.131 186.93 217.442 186.435C216.73 185.924 216.324 185.546 216.153 185.307C215.988 185.077 215.743 184.512 215.455 183.55C215.179 182.627 214.894 181.449 214.608 180.089C214.037 177.371 213.475 173.987 212.978 170.598C211.981 163.783 211.271 157.092 211.271 155.78C211.271 155.525 211.335 154.978 211.475 154.143C211.611 153.333 211.806 152.318 212.042 151.169C212.515 148.87 213.147 146.061 213.78 143.333C214.382 140.735 214.985 138.215 215.452 136.289C215.653 137.169 215.87 138.086 216.103 139.039L216.112 139.075L216.123 139.111C217.684 143.925 218.851 147.734 219.627 150.543C220.014 151.948 220.302 153.093 220.491 153.983C220.685 154.894 220.762 155.474 220.762 155.78C220.762 156.55 221.047 158.016 221.459 159.692C221.882 161.415 222.472 163.484 223.143 165.527C223.813 167.567 224.57 169.604 225.332 171.255C225.713 172.08 226.104 172.827 226.494 173.437C226.871 174.025 227.304 174.577 227.798 174.914C227.876 174.968 228.054 175.119 228.349 175.415C228.63 175.696 228.979 176.067 229.388 176.521C230.206 177.428 231.243 178.638 232.425 180.057C234.79 182.893 237.717 186.536 240.602 190.198C243.487 193.859 246.326 197.533 248.515 200.428C249.609 201.876 250.538 203.126 251.228 204.08C251.445 204.38 251.634 204.645 251.794 204.873ZM265.841 210.651L264.985 211.168L266.642 210.052L265.841 210.651ZM273.037 218.303C273.037 218.303 273.037 218.302 273.037 218.3L273.037 218.303Z" fill="#524869"/>
<path d="M197.716 81.3464C197.716 81.3464 192.263 77.9413 191.836 75.7667C190.744 70.2023 193.064 67.2647 193.522 65.7074C194.477 62.4585 194.167 61.7496 196.108 61.7496C198.05 61.7496 198.917 58.617 200.186 54.7689C201.455 50.9209 200.383 50.3763 199.446 50.3763C198.509 50.3763 197.785 50.5529 197.196 52.2626C196.606 53.9724 195.265 62.2827 192.446 64.8697C189.627 67.4567 184.767 68.4595 179.969 68.4595C175.171 68.4595 166.879 64.323 166.879 61.7496C166.879 59.1762 171.778 58.7556 176.875 60.2526C181.972 61.7496 188.327 62.2561 188.327 60.2526C188.327 58.2491 185.926 54.7689 183.473 54.7689C181.021 54.7689 178.62 54.2329 183.473 53.2478C188.327 52.2626 186.672 49.9496 185.899 49.1249C185.609 48.8158 184.56 48.7754 183.964 48.5191C182.969 48.0914 182.117 47.5523 179.969 47.7502C176.534 48.0668 178.508 47.6415 176.086 48.8369C173.664 50.0322 174.831 50.3763 174.831 50.3763C174.831 50.3763 179.059 50.3763 181.972 50.3763C184.885 50.3763 186.076 50.6259 186.484 49.7217C186.891 48.8175 183.473 45.3786 183.473 44.5502C183.473 43.7217 184.749 44.3287 184.749 42.8568C184.749 41.3848 181.972 37.56 181.972 38.4593C181.972 39.3585 185.398 42.2298 182.307 42.2298C179.216 42.2298 179.072 40.7747 178.623 41.3848C178.173 41.995 177.458 44.1408 176.71 43.804C175.961 43.4672 176.546 41.2056 177.257 40.3926C177.968 39.5797 177.17 38.2714 178.257 38.2714C179.345 38.2714 180.884 38.0907 180.391 37.6458C179.897 37.2009 181.359 36.7449 183.235 36.7449C185.112 36.7449 189.078 38.5742 190.561 39.3585C192.044 40.1429 194.073 40.5331 192.446 39.6928C190.819 38.8525 186.45 38.2565 185.899 37.8018C185.347 37.347 185.725 37.4143 187.501 37.1886C189.278 36.9629 192.304 39.1955 192.913 38.2714C193.522 37.3473 194.32 35.0917 192.913 34.7159C191.506 34.3401 189.343 32.9815 186.797 32.9815C184.252 32.9815 183.049 32.895 184.923 31.8938C186.797 30.8927 189.039 31.901 190.069 32.4504C191.098 32.9998 194.572 34.6135 194.047 35.1469C193.522 35.6803 192.698 35.5779 192.446 35.1469C192.194 34.7159 193.699 34.7893 194.904 36.7449C196.108 38.7005 197.062 38.1851 197.716 42.19C198.37 46.1949 196.901 54.2871 196.738 51.3127C196.576 48.3383 198.642 37.1136 198.127 34.7159C197.612 32.3181 196.449 24.8415 186.797 21.5542C177.145 18.2668 169.824 22.3749 167.801 24.1902C165.778 26.0055 162.733 31.3435 162.733 33.5343C162.733 36.996 162.378 43.0258 162.378 43.804C162.378 46.2504 162.195 47.8734 162.195 49.1249C162.195 50.3763 162.922 53.7379 163.763 55.9386C164.604 58.1393 165.68 60.3026 164.108 60.8827C162.536 61.4628 162.448 59.1931 161.717 58.759C160.986 58.3248 159.828 58.0814 159.342 55.172C158.856 52.2626 159.451 51.0638 160.584 51.3127C161.717 51.5616 162.875 51.5493 163.492 52.8041C164.108 54.0589 164.192 57.6748 163.763 57.8873C163.334 58.0997 163.433 57.3935 162.378 57.0665C161.323 56.7394 160.947 56.2901 161.233 54.7689C161.519 53.2478 160.644 52.2006 161.511 52.8041C162.378 53.4076 165.149 59.2398 165.665 59.4307C166.18 59.6216 163.492 51.8496 163.492 49.1249C163.492 46.4002 164.031 41.8724 164.508 40.9758C164.986 40.0793 169.387 37.8018 172.217 37.8018C175.048 37.8018 176.737 37.8018 175.612 37.8018C174.486 37.8018 170.243 39.3585 169.328 39.3585C168.413 39.3585 169.16 38.1032 168.413 36.7449C167.665 35.3866 166.851 34.3055 168.532 33.5343C170.213 32.763 171.917 31.3543 174.154 31.6241C176.391 31.8938 177.045 30.9458 177.743 32.4504C178.44 33.955 178.018 32.384 174.831 32.6919C171.644 32.9998 170.607 33.788 168.934 34.3401C167.261 34.8921 166.159 35.0187 165.41 37.1886C164.662 39.3585 165.199 41.2334 164.108 39.8463" stroke="#534869" stroke-width="2" stroke-linecap="round" stroke-linejoin="round"/>
<path fill-rule="evenodd" clip-rule="evenodd" d="M190.1 12.7688C186.027 6.53717 176.897 6.53717 172.824 12.7688C168.34 19.6317 173.264 28.7318 181.462 28.7318C189.66 28.7318 194.584 19.6318 190.1 12.7688Z" fill="#27A9C6"/>
<path fill-rule="evenodd" clip-rule="evenodd" d="M190.1 53.3606C186.027 59.5922 176.897 59.5922 172.824 53.3606C168.34 46.4976 173.264 37.3975 181.462 37.3975C189.66 37.3975 194.584 46.4976 190.1 53.3606Z" fill="#27A9C6"/>
<path fill-rule="evenodd" clip-rule="evenodd" d="M196.058 87.5678C196.058 79.5074 189.523 72.9729 181.463 72.9729C173.403 72.9729 166.868 79.5074 166.868 87.5678C166.868 95.6282 173.403 102.163 181.463 102.163C189.523 102.163 196.058 95.6282 196.058 87.5678Z" fill="#FFBC40"/>
<path fill-rule="evenodd" clip-rule="evenodd" d="M191.631 125.047C186.059 119.481 177.031 119.481 171.459 125.047C165.877 130.622 165.877 139.668 171.459 145.243C177.031 150.809 186.059 150.809 191.631 145.243C197.213 139.668 197.213 130.622 191.631 125.047Z" fill="#19CEB7"/>
<path fill-rule="evenodd" clip-rule="evenodd" d="M196.058 198.854C196.058 190.794 189.523 184.259 181.463 184.259C173.403 184.259 166.868 190.794 166.868 198.854C166.868 206.914 173.403 213.449 181.463 213.449C189.523 213.449 196.058 206.914 196.058 198.854Z" fill="#F13C60"/>
<path fill-rule="evenodd" clip-rule="evenodd" d="M196.058 239.902C196.058 231.842 189.523 225.307 181.463 225.307C173.403 225.307 166.868 231.842 166.868 239.902C166.868 247.962 173.403 254.497 181.463 254.497C189.523 254.497 196.058 247.962 196.058 239.902Z" fill="#27A9C6"/>
<path fill-rule="evenodd" clip-rule="evenodd" d="M124.681 201.07C132.144 196.625 132.144 185.817 124.681 181.371C117.039 176.819 107.349 182.326 107.349 191.221C107.349 200.116 117.039 205.622 124.681 201.07Z" fill="#F35B1F"/>
<path fill-rule="evenodd" clip-rule="evenodd" d="M238.949 201.07C231.486 196.625 231.486 185.817 238.949 181.371C246.591 176.819 256.281 182.326 256.281 191.221C256.281 200.116 246.591 205.622 238.949 201.07Z" fill="#F35B1F"/>
<path fill-rule="evenodd" clip-rule="evenodd" d="M154.414 148.59C150.474 143.028 142.219 143.028 138.279 148.59C133.641 155.138 138.323 164.191 146.346 164.191C154.37 164.191 159.051 155.138 154.414 148.59Z" fill="#F13C60"/>
<path fill-rule="evenodd" clip-rule="evenodd" d="M196.23 25.416C196.23 25.416 196.815 27.8636 191.951 28.7319C187.087 29.6001 170.758 29.3227 168.319 27.9313C165.879 26.54 165.489 25.9902 167.304 22.821C169.118 19.6518 174.944 10.9631 174.944 10.9631V12.54C174.944 12.54 168.319 22.0171 168.319 24.1141C168.319 26.2111 173.607 26.737 178.006 26.737C182.406 26.737 192.062 28.0579 193.026 26.737C193.99 25.416 196.23 25.416 196.23 25.416Z" fill="#12819A"/>
<path fill-rule="evenodd" clip-rule="evenodd" d="M188.514 55.2455C188.514 55.2455 184.855 62.229 181.4 62.229C177.946 62.229 167.305 44.918 167.305 44.918C167.305 44.918 166.046 41.5058 167.305 39.5798C168.563 37.6537 182.815 38.5926 182.815 38.5926C182.815 38.5926 170.93 37.9707 169.117 40.7262C167.305 43.4816 180.367 57.9886 181.591 57.9886C182.815 57.9886 188.514 55.2455 188.514 55.2455Z" fill="#12819A"/>
<path fill-rule="evenodd" clip-rule="evenodd" d="M195.41 91.5957C195.41 91.5957 195.022 97.3368 192.536 99.291C190.05 101.245 186.666 101.359 183.822 101.359C180.978 101.359 175.368 102.102 173.173 101.359C170.978 100.615 167.741 98.7079 167.304 95.8534C166.868 92.999 167.841 81.0692 167.841 81.0692C167.841 81.0692 167.638 93.5074 170.828 95.3141C174.018 97.1208 179.029 98.3262 181.942 97.7235C184.855 97.1208 184.919 96.3838 186.716 96.3838C188.513 96.3838 189.887 97.8081 191.939 95.8534C193.992 93.8988 195.41 91.5957 195.41 91.5957Z" fill="#D99725"/>
<path fill-rule="evenodd" clip-rule="evenodd" d="M195.41 138.942C195.41 138.942 186.336 149.517 181.965 149.517C177.594 149.517 171.953 142.786 171.953 142.786H173.173C173.173 142.786 181.095 149.994 183.682 146.654C186.269 143.314 195.41 138.942 195.41 138.942Z" fill="#13AD99"/>
<path fill-rule="evenodd" clip-rule="evenodd" d="M193.126 209.946C193.126 209.946 190.652 205.248 184.855 205.248C179.059 205.248 174.558 197.099 171.954 196.599C169.35 196.099 167.305 193.099 167.305 193.099V209.965C167.305 209.965 168.942 212.984 175.879 212.984C182.815 212.984 185.452 212.984 188.514 212.984C191.576 212.984 193.126 209.946 193.126 209.946Z" fill="#CE3856"/>
<path fill-rule="evenodd" clip-rule="evenodd" d="M195.41 242.879C195.41 242.879 195.303 247.855 191.908 251.072C188.513 254.29 181.4 252.252 181.4 252.252C181.4 252.252 176.603 255.153 171.953 252.252C167.304 249.351 167.304 242.203 167.304 242.203C167.304 242.203 167.822 239.607 174.018 242.879C180.215 246.151 180.082 248.721 184.855 244.312C189.627 239.902 191.908 238.62 191.908 235.451C191.908 232.283 192.986 228.985 189.627 228.863C186.269 228.74 183.682 228.74 183.682 228.74L184.855 226.593C184.855 226.593 191.979 225.443 194.14 228.863C196.3 232.283 195.41 242.203 195.41 242.203" fill="#1B91AC"/>
<path fill-rule="evenodd" clip-rule="evenodd" d="M135.208 192.294C135.208 192.294 134.582 194.008 133.342 194.508C132.102 195.009 113.547 207.053 113.547 207.053C113.547 207.053 110.893 207.935 108.708 205.488C106.524 203.042 108.708 191.221 108.708 191.221L109.887 192.294C109.887 192.294 108.494 201.977 111.02 201.977C113.547 201.977 117.379 196.005 121.412 195.009C125.445 194.012 128.903 194.69 130.775 193.099C132.647 191.509 132.097 189.113 130.775 189.113C129.454 189.113 130.775 186.928 130.775 186.928C130.775 186.928 135.208 189.488 135.208 190.498C135.208 191.509 135.208 192.294 135.208 192.294Z" fill="#D04D19"/>
<path fill-rule="evenodd" clip-rule="evenodd" d="M255.223 179.259C255.223 179.259 255.223 201.415 255.223 203.042C255.223 204.669 254.483 208.306 251.496 206.487C248.508 204.669 235.036 197.107 235.036 197.107H237.018C237.018 197.107 249.992 204.885 251.496 203.042C252.999 201.199 252.994 181.021 252.994 181.021C252.994 181.021 250.765 177.434 252.994 177.434C255.223 177.434 255.223 179.259 255.223 179.259Z" fill="#D04D19"/>
<path fill-rule="evenodd" clip-rule="evenodd" d="M257.188 205.69C257.188 205.69 256.518 208.619 252.718 208.497C248.918 208.375 227.585 195.214 225.726 193.217C223.866 191.221 224.771 186.26 229.903 184.259C235.035 182.258 250.271 172.627 251.495 172.627C252.718 172.627 256.131 171.573 257.188 175.416C258.245 179.259 257.188 205.69 257.188 205.69Z" stroke="white" stroke-width="2"/>
<path fill-rule="evenodd" clip-rule="evenodd" d="M104.216 204.669C104.216 204.669 107.289 210.199 114.146 207.434C121.004 204.669 137.832 197.526 137.832 194.012C137.832 190.498 138.141 191 133.303 186.01C128.464 181.021 112.725 174.661 110.519 174.661C108.314 174.661 106.658 175.782 105.437 180.021C104.216 184.259 104.216 204.669 104.216 204.669Z" stroke="white" stroke-width="2"/>
<path fill-rule="evenodd" clip-rule="evenodd" d="M196.3 228.741C196.3 228.741 194.212 223.22 188.513 223.22C182.814 223.22 173.977 223.265 170.641 225.307C167.304 227.35 166.868 231.234 166.868 235.451C166.868 239.668 165.259 249.848 167.304 252.252C169.349 254.656 177.102 255.721 180.978 255.721C184.855 255.721 194.066 256.596 196.057 252.252C198.048 247.909 196.3 228.741 196.3 228.741Z" stroke="white" stroke-width="2"/>
<path fill-rule="evenodd" clip-rule="evenodd" d="M188.512 213.63C188.512 213.63 193.542 213.64 196.299 210.344C199.055 207.047 197.982 192.064 196.299 189.037C194.615 186.01 194.211 184.259 188.512 184.259C182.813 184.259 168.34 182.261 167.303 187.839C166.265 193.418 166.211 205.609 167.303 208.502C168.395 211.394 170.776 213.63 175.876 213.63C180.977 213.63 188.512 213.63 188.512 213.63Z" stroke="white" stroke-width="2"/>
<path fill-rule="evenodd" clip-rule="evenodd" d="M181.965 63.5573C184.854 63.5573 190.777 55.849 191.832 54.1655C192.887 52.4821 198.661 45.449 198.661 40.6926C198.661 35.9362 190.741 38.6665 189.627 37.3013C188.513 35.9362 172.27 37.3013 169.787 37.3013C167.304 37.3013 165.417 40.2536 166.868 43.3458C168.318 46.4379 177.851 62.6377 178.617 63.0975C179.382 63.5573 179.075 63.5573 181.965 63.5573Z" stroke="white" stroke-width="2" stroke-linecap="round"/>
<path fill-rule="evenodd" clip-rule="evenodd" d="M198.661 23.9804C198.661 23.9804 197.792 28.7696 189.627 28.7319C181.462 28.6942 171.416 29.6001 169.36 29.6001C167.304 29.6001 164.55 28.0137 164.55 24.8001C164.55 21.5865 174.725 7.66189 175.524 6.08622C176.323 4.51056 180.082 -0.169861 184.854 2.95818C189.627 6.08622 196.531 19.0294 197.596 20.1042C198.661 21.179 198.661 23.9804 198.661 23.9804Z" stroke="white" stroke-width="2"/>
<path fill-rule="evenodd" clip-rule="evenodd" d="M134.054 164.191C134.054 164.191 156.135 165.281 158.74 164.918C161.346 164.555 165.225 162.875 163.661 159.638C162.098 156.4 154.211 145.953 152.049 141.844C149.887 137.734 144.82 137.346 143.183 138.942C141.546 140.538 133.872 151.915 132.646 155.317C131.42 158.72 132.646 162.442 132.646 162.442C132.646 162.442 134.054 164.191 134.054 164.191Z" stroke="white" stroke-width="2"/>
<path fill-rule="evenodd" clip-rule="evenodd" d="M199.31 132.817C199.31 132.817 201.503 136.041 199.31 138.942C197.116 141.844 186.894 149.347 184.854 151.539C182.814 153.731 178.159 153.779 175.877 151.539C173.595 149.3 164.021 140.393 164.021 138.554C164.021 136.715 161.627 132.11 166.867 127.896C172.107 123.683 177.101 117.33 180.977 117.33C184.854 117.33 188.963 121.014 192.139 124.131C195.315 127.249 199.31 132.817 199.31 132.817Z" stroke="white" stroke-width="2"/>
<path fill-rule="evenodd" clip-rule="evenodd" d="M197.164 90.8677C197.164 90.8677 196.916 97.8961 196.057 99.5387C195.198 101.181 192.055 103.093 187.151 103.093C182.247 103.093 172.054 104.061 170.392 103.093C168.73 102.125 167.677 99.0176 166.362 94.9427C165.047 90.8677 166.809 77.9109 167.056 76.5286C167.304 75.1464 167.384 72.1335 176.914 71.3298C186.444 70.5261 192.924 72.4116 194.612 74.4701C196.3 76.5286 197.164 80.9429 197.164 82.8936C197.164 84.8442 197.164 90.8677 197.164 90.8677Z" stroke="white" stroke-width="2"/>
<path d="M191.168 28.5334V27.5334H192.168V28.5334H191.168ZM191.168 37.6536H192.168V38.6536H191.168V37.6536ZM189.001 28.5334H188.001V27.5334H189.001V28.5334ZM189.001 37.6536V38.6536H188.001V37.6536H189.001ZM191.168 56.6368V55.6368H192.168V56.6368H191.168ZM191.168 72.0607H192.168V73.0607H191.168V72.0607ZM189.001 56.6368H188.001V55.6368H189.001V56.6368ZM189.001 72.0607V73.0607H188.001V72.0607H189.001ZM189.001 102.645H188.001V101.645H189.001V102.645ZM189.001 122.237V123.237H188.001V122.237H189.001ZM191.168 122.237H192.168V123.237H191.168V122.237ZM191.168 102.645V101.645H192.168V102.645H191.168ZM191.168 147.413V146.413H192.168V147.413H191.168ZM191.168 184.667H192.168V185.667H191.168V184.667ZM189.001 147.413H188.001V146.413H189.001V147.413ZM189.001 184.667V185.667H188.001V184.667H189.001ZM191.168 213.548V212.548H192.168V213.548H191.168ZM191.168 223.295H192.168V224.295H191.168V223.295ZM189.001 213.548H188.001V212.548H189.001V213.548ZM189.001 223.295V224.295H188.001V223.295H189.001ZM192.168 28.5334V37.6536H190.168V28.5334H192.168ZM189.001 27.5334H191.168V29.5334H189.001V27.5334ZM188.001 37.6536V28.5334H190.001V37.6536H188.001ZM191.168 38.6536H189.001V36.6536H191.168V38.6536ZM192.168 56.6368V72.0607H190.168V56.6368H192.168ZM189.001 55.6368H191.168V57.6368H189.001V55.6368ZM188.001 72.0607V56.6368H190.001V72.0607H188.001ZM191.168 73.0607H189.001V71.0607H191.168V73.0607ZM188.001 103.978V102.645H190.001V103.978H188.001ZM188.001 122.237V103.978H190.001V122.237H188.001ZM191.168 123.237H189.001V121.237H191.168V123.237ZM192.168 103.978V122.237H190.168V103.978H192.168ZM192.168 102.645V103.978H190.168V102.645H192.168ZM189.001 101.645H191.168V103.645H189.001V101.645ZM192.168 147.413V184.667H190.168V147.413H192.168ZM189.001 146.413H191.168V148.413H189.001V146.413ZM188.001 184.667V147.413H190.001V184.667H188.001ZM191.168 185.667H189.001V183.667H191.168V185.667ZM192.168 213.548V223.295H190.168V213.548H192.168ZM189.001 212.548H191.168V214.548H189.001V212.548ZM188.001 223.295V213.548H190.001V223.295H188.001ZM191.168 224.295H189.001V222.295H191.168V224.295Z" fill="white"/>
<path d="M182.94 28.6536V27.6536H183.94V28.6536H182.94ZM182.94 36.6948H183.94V37.6948H182.94V36.6948ZM180.774 28.6536H179.774V27.6536H180.774V28.6536ZM180.774 36.6948V37.6948H179.774V36.6948H180.774ZM182.94 63.5573V62.5573H183.94V63.5573H182.94ZM182.94 71.1403H183.94V72.1403H182.94V71.1403ZM180.774 63.5573H179.774V62.5573H180.774V63.5573ZM180.774 71.1403V72.1403H179.774V71.1403H180.774ZM182.94 103.086V102.086H183.94V103.086H182.94ZM182.94 117.33H183.94V118.33H182.94V117.33ZM180.774 103.086H179.774V102.086H180.774V103.086ZM180.774 117.33V118.33H179.774V117.33H180.774ZM182.94 153.202V152.202H183.94V153.202H182.94ZM180.774 153.202H179.774V152.202H180.774V153.202ZM180.774 184.368V185.368H179.774V184.368H180.774ZM182.94 184.368H183.94V185.368H182.94V184.368ZM182.94 213.649L182.957 212.649L183.957 212.666L183.94 213.666L182.94 213.649ZM182.775 223.314L183.775 223.331L183.758 224.331L182.758 224.314L182.775 223.314ZM180.774 213.612L179.774 213.595L179.791 212.595L180.791 212.612L180.774 213.612ZM180.609 223.277L180.591 224.277L179.592 224.26L179.609 223.26L180.609 223.277ZM183.94 28.6536V36.6948H181.94V28.6536H183.94ZM180.774 27.6536H182.94V29.6536H180.774V27.6536ZM179.774 36.6948V28.6536H181.774V36.6948H179.774ZM182.94 37.6948H180.774V35.6948H182.94V37.6948ZM183.94 63.5573V71.1403H181.94V63.5573H183.94ZM180.774 62.5573H182.94V64.5573H180.774V62.5573ZM179.774 71.1403V63.5573H181.774V71.1403H179.774ZM182.94 72.1403H180.774V70.1403H182.94V72.1403ZM183.94 103.086V117.33H181.94V103.086H183.94ZM180.774 102.086H182.94V104.086H180.774V102.086ZM179.774 117.33V103.086H181.774V117.33H179.774ZM182.94 118.33H180.774V116.33H182.94V118.33ZM183.94 153.202V156.252H181.94V153.202H183.94ZM180.774 152.202H182.94V154.202H180.774V152.202ZM179.774 156.252V153.202H181.774V156.252H179.774ZM179.774 184.368V156.252H181.774V184.368H179.774ZM182.94 185.368H180.774V183.368H182.94V185.368ZM183.94 156.252V184.368H181.94V156.252H183.94ZM183.94 213.666L183.775 223.331L181.775 223.297L181.941 213.632L183.94 213.666ZM180.791 212.612L182.957 212.649L182.923 214.649L180.757 214.612L180.791 212.612ZM179.609 223.26L179.774 213.595L181.774 213.629L181.608 223.294L179.609 223.26ZM182.758 224.314L180.591 224.277L180.626 222.277L182.792 222.314L182.758 224.314Z" fill="white"/>
<path d="M174.685 29.2269V28.2269H175.685V29.2269H174.685ZM174.685 37.3012H175.685V38.3012H174.685V37.3012ZM172.518 29.2269H171.518V28.2269H172.518V29.2269ZM172.518 37.3012V38.3012H171.518V37.3012H172.518ZM174.685 55.1761V54.1761H175.685V55.1761H174.685ZM174.685 72.0606H175.685V73.0606H174.685V72.0606ZM172.518 55.1761H171.518V54.1761H172.518V55.1761ZM172.518 72.0606V73.0606H171.518V72.0606H172.518ZM174.685 103.086V102.086H175.685V103.086H174.685ZM174.685 122.236H175.685V123.236H174.685V122.236ZM172.518 103.086H171.518V102.086H172.518V103.086ZM172.518 122.236V123.236H171.518V122.236H172.518ZM174.685 149.517V148.517H175.685V149.517H174.685ZM174.685 184.358H175.685V185.358H174.685V184.358ZM172.518 149.517H171.518V148.517H172.518V149.517ZM172.518 184.358V185.358H171.518V184.358H172.518ZM174.685 213.592V212.592H175.685V213.592H174.685ZM172.518 213.592H171.518V212.592H172.518V213.592ZM172.518 224.446V225.446H171.518V224.446H172.518ZM174.685 224.446H175.685V225.446H174.685V224.446ZM175.685 29.2269V37.3012H173.685V29.2269H175.685ZM172.518 28.2269H174.685V30.2269H172.518V28.2269ZM171.518 37.3012V29.2269H173.518V37.3012H171.518ZM174.685 38.3012H172.518V36.3012H174.685V38.3012ZM175.685 55.1761V72.0606H173.685V55.1761H175.685ZM172.518 54.1761H174.685V56.1761H172.518V54.1761ZM171.518 72.0606V55.1761H173.518V72.0606H171.518ZM174.685 73.0606H172.518V71.0606H174.685V73.0606ZM175.685 103.086V122.236H173.685V103.086H175.685ZM172.518 102.086H174.685V104.086H172.518V102.086ZM171.518 122.236V103.086H173.518V122.236H171.518ZM174.685 123.236H172.518V121.236H174.685V123.236ZM175.685 149.517V184.358H173.685V149.517H175.685ZM172.518 148.517H174.685V150.517H172.518V148.517ZM171.518 184.358V149.517H173.518V184.358H171.518ZM174.685 185.358H172.518V183.358H174.685V185.358ZM175.685 213.592V223.638H173.685V213.592H175.685ZM172.518 212.592H174.685V214.592H172.518V212.592ZM171.518 223.638V213.592H173.518V223.638H171.518ZM171.518 224.446V223.638H173.518V224.446H171.518ZM174.685 225.446H172.518V223.446H174.685V225.446ZM175.685 223.638V224.446H173.685V223.638H175.685Z" fill="white"/>
<path d="M116.611 176.817L165.88 90.4025" stroke="white" stroke-width="2"/>
<path d="M108.293 175.211L109.046 174.244L166.363 83.0283" stroke="white" stroke-width="2"/>
<path d="M126.531 181.295L134.168 164.005" stroke="white" stroke-width="2"/>
<path d="M136.662 196.045L167.13 204.387" stroke="white" stroke-width="2"/>
<path d="M156.167 148.409L164.021 138.819" stroke="white" stroke-width="2"/>
<path d="M148.561 138.741L166.363 95.365" stroke="white" stroke-width="2"/>
<path d="M253.039 172.539L197.117 83.666" stroke="white" stroke-width="2"/>
<path d="M245.008 176.182L197.117 92.8916" stroke="white" stroke-width="2"/>
<path d="M200.407 136.067L225.609 142.603" stroke="white" stroke-width="2"/>
<path d="M197.455 193.099L240.248 168.03" stroke="white" stroke-width="2"/>
<path d="M230.887 183.911C230.887 183.911 227.605 163.145 201.741 167.096C175.878 171.047 164.022 161.167 164.022 161.167" stroke="white" stroke-width="2"/>
<path d="M197.989 204.387L227.818 195.009" stroke="white" stroke-width="2"/>
<path d="M196.749 235.894L236.347 200.216" stroke="white" stroke-width="2"/>
<path d="M196.75 248.949L251.496 208.375" stroke="white" stroke-width="2"/>
<path d="M167.108 235.451L128.547 201.138" stroke="white" stroke-width="2"/>
<path d="M197.118 242.203L243.552 204.387" stroke="white" stroke-width="2"/>
<path d="M167.084 242.203L121.027 204.387" stroke="white" stroke-width="2"/>
<path d="M166.266 247.77L112.93 207.841" stroke="white" stroke-width="2"/>
<ellipse cx="4.32201" cy="4.32591" rx="4.32201" ry="4.32591" transform="matrix(-1 0 0 1 255.682 63.9482)" fill="white"/>
<ellipse cx="4.32201" cy="4.32591" rx="4.32201" ry="4.32591" transform="matrix(-1 0 0 1 78.6025 74.8571)" fill="white"/>
<ellipse cx="4.32201" cy="4.32591" rx="4.32201" ry="4.32591" transform="matrix(-1 0 0 1 289.53 100.812)" fill="white"/>
<ellipse cx="4.32201" cy="4.32591" rx="4.32201" ry="4.32591" transform="matrix(-1 0 0 1 259.827 107.583)" fill="white"/>
<ellipse cx="4.32201" cy="4.32591" rx="4.32201" ry="4.32591" transform="matrix(-1 0 0 1 104.566 130.153)" fill="white"/>
<ellipse cx="4.32201" cy="4.32591" rx="4.32201" ry="4.32591" transform="matrix(-1 0 0 1 87.2842 98.5554)" fill="white"/>
<ellipse cx="4.32201" cy="4.32591" rx="4.32201" ry="4.32591" transform="matrix(-1 0 0 1 95.9336 57.1772)" fill="white"/>
<ellipse cx="2.06705" cy="2.06891" rx="2.06705" ry="2.06891" transform="matrix(-1 0 0 1 273.368 62.0674)" fill="white"/>
<ellipse cx="2.06705" cy="2.06891" rx="2.06705" ry="2.06891" transform="matrix(-1 0 0 1 272.61 98.5554)" fill="white"/>
<ellipse cx="2.06705" cy="2.06891" rx="2.06705" ry="2.06891" transform="matrix(-1 0 0 1 269.228 119.245)" fill="white"/>
<ellipse cx="2.06705" cy="2.06891" rx="2.06705" ry="2.06891" transform="matrix(-1 0 0 1 259.451 97.8031)" fill="white"/>
<ellipse cx="2.06705" cy="2.06891" rx="2.06705" ry="2.06891" transform="matrix(-1 0 0 1 113.222 138.805)" fill="white"/>
<ellipse cx="2.06705" cy="2.06891" rx="2.06705" ry="2.06891" transform="matrix(-1 0 0 1 87.6387 111.721)" fill="white"/>
<ellipse cx="2.06705" cy="2.06891" rx="2.06705" ry="2.06891" transform="matrix(-1 0 0 1 125.268 84.6373)" fill="white"/>
<ellipse cx="2.06705" cy="2.06891" rx="2.06705" ry="2.06891" transform="matrix(-1 0 0 1 265.086 138.805)" fill="white"/>
<ellipse cx="2.06705" cy="2.06891" rx="2.06705" ry="2.06891" transform="matrix(-1 0 0 1 85.3945 61.6912)" fill="white"/>
<ellipse cx="2.06705" cy="2.06891" rx="2.06705" ry="2.06891" transform="matrix(-1 0 0 1 75.2148 52.2871)" fill="white"/>
<ellipse cx="2.06705" cy="2.06891" rx="2.06705" ry="2.06891" transform="matrix(-1 0 0 1 89.1729 89.9036)" fill="white"/>
<ellipse cx="2.06705" cy="2.06891" rx="2.06705" ry="2.06891" transform="matrix(-1 0 0 1 290.281 66.2052)" fill="white"/>
<ellipse cx="2.06705" cy="2.06891" rx="2.06705" ry="2.06891" transform="matrix(-1 0 0 1 284.644 80.4995)" fill="white"/>
<ellipse cx="2.06705" cy="2.06891" rx="2.06705" ry="2.06891" transform="matrix(-1 0 0 1 276.751 85.0134)" fill="white"/>
<ellipse cx="2.06705" cy="2.06891" rx="2.06705" ry="2.06891" transform="matrix(-1 0 0 1 236.143 43.259)" fill="white"/>
<ellipse cx="2.06705" cy="2.06891" rx="2.06705" ry="2.06891" transform="matrix(-1 0 0 1 274.496 35.3596)" fill="white"/>
<ellipse cx="2.06705" cy="2.06891" rx="2.06705" ry="2.06891" transform="matrix(-1 0 0 1 257.585 78.2424)" fill="white"/>
<ellipse cx="2.06705" cy="2.06891" rx="2.06705" ry="2.06891" transform="matrix(-1 0 0 1 115.468 46.6445)" fill="white"/>
<ellipse cx="2.06705" cy="2.06891" rx="2.06705" ry="2.06891" transform="matrix(-1 0 0 1 76.7373 93.2892)" fill="white"/>
<ellipse cx="2.06705" cy="2.06891" rx="2.06705" ry="2.06891" transform="matrix(-1 0 0 1 298.55 53.4155)" fill="white"/>
<ellipse cx="2.8187" cy="2.82124" rx="2.8187" ry="2.82124" transform="matrix(-1 0 0 1 294.791 47.397)" fill="white"/>
<ellipse cx="2.8187" cy="2.82124" rx="2.8187" ry="2.82124" transform="matrix(-1 0 0 1 307.572 68.8384)" fill="white"/>
<ellipse cx="2.8187" cy="2.82124" rx="2.8187" ry="2.82124" transform="matrix(-1 0 0 1 103.086 113.602)" fill="white"/>
<ellipse cx="2.8187" cy="2.82124" rx="2.8187" ry="2.82124" transform="matrix(-1 0 0 1 259.805 141.062)" fill="white"/>
<ellipse cx="1.12748" cy="1.1285" rx="1.12748" ry="1.1285" transform="matrix(-1 0 0 1 271.49 82.3804)" fill="white"/>
<ellipse cx="1.12748" cy="1.1285" rx="1.12748" ry="1.1285" transform="matrix(-1 0 0 1 291.408 72.2239)" fill="white"/>
<ellipse cx="292.724" cy="36.6762" rx="1.31539" ry="1.31658" fill="white"/>
<ellipse cx="59.625" cy="45.3279" rx="1.31539" ry="1.31658" fill="white"/>
<ellipse cx="107.774" cy="35.1716" rx="1.31539" ry="1.31658" fill="white"/>
<ellipse cx="100.272" cy="99.4959" rx="1.31539" ry="1.31658" fill="white"/>
<ellipse cx="106.644" cy="136.736" rx="1.31539" ry="1.31658" fill="white"/>
<ellipse cx="60.0039" cy="70.9073" rx="1.31539" ry="1.31658" fill="white"/>
<ellipse cx="96.1123" cy="83.3207" rx="1.31539" ry="1.31658" fill="white"/>
<ellipse cx="88.9531" cy="42.6948" rx="1.31539" ry="1.31658" fill="white"/>
</svg>
