<svg width="1920" height="749" viewBox="0 0 1920 749" fill="none" xmlns="http://www.w3.org/2000/svg">
<path fill-rule="evenodd" clip-rule="evenodd" d="M844.911 694.67C844.911 694.67 799.555 648.741 763.947 582.114C728.339 515.487 679.819 345.64 526.319 345.21C372.82 344.78 314.374 377.497 218.094 340.378C121.814 303.259 6.10352e-05 70.4684 6.10352e-05 70.4684L0.878052 166.436L110.868 418.017L346.483 482.119L527.832 464.435L739.111 624.233L811.75 679.772L844.911 694.67Z" fill="#231C31"/>
<path fill-rule="evenodd" clip-rule="evenodd" d="M582.503 153.376C562.281 140.245 542.119 127.973 522.212 116.614L444.201 76.0818C322.065 19.0216 221.504 3.27387 195.211 43.7536C159.422 98.8541 274.793 237.269 452.9 352.912C631.006 468.556 804.403 517.635 840.192 462.535C875.981 407.434 760.61 269.019 582.503 153.376ZM587.062 178.983C571.683 168.997 556.349 159.664 541.21 151.025L481.882 120.2C388.997 76.806 312.52 64.8297 292.524 95.6148C265.307 137.519 353.047 242.784 488.498 330.731C623.949 418.678 755.818 456.004 783.035 414.099C810.253 372.195 722.513 266.93 587.062 178.983Z" fill="#FFBC40"/>
<path fill-rule="evenodd" clip-rule="evenodd" d="M539.852 121.158C747.579 165.304 904.9 253.187 891.237 317.451C877.575 381.716 698.104 398.025 490.377 353.879C282.65 309.733 125.329 221.849 138.991 157.585C151.374 99.3387 299.967 80.4868 482.353 110.336" fill="#F13C60"/>
<path fill-rule="evenodd" clip-rule="evenodd" d="M531.09 138.236C677.721 169.398 788.771 231.434 779.127 276.797C769.483 322.159 642.798 333.672 496.167 302.51C349.536 271.348 238.486 209.313 248.13 163.95C256.871 122.835 361.76 109.527 490.503 130.598" fill="#D12C4D"/>
<path d="M545.909 122.612C751.041 177.567 903.545 273.562 886.538 337.023C869.53 400.484 689.451 407.38 484.32 352.425C279.188 297.47 126.684 201.475 143.691 138.013C159.106 80.4949 308.482 69.4441 489.055 108.796" stroke="white" stroke-width="3"/>
<path fill-rule="evenodd" clip-rule="evenodd" d="M952.728 715.427C952.728 715.427 867.281 714.31 833.78 686.5C669.773 550.352 593.789 385.297 425.645 406.81C257.501 428.324 191.673 405.544 130.126 346.876C68.5781 288.208 6.10352e-05 126.949 6.10352e-05 126.949L0.877991 489.79C0.877991 489.79 42.1573 580.054 130.126 591.2C218.094 602.345 439.476 556.823 531.906 579.584C624.335 602.345 733.096 689.085 766.924 702.256C800.752 715.427 952.728 715.427 952.728 715.427Z" fill="#58379D"/>
<path fill-rule="evenodd" clip-rule="evenodd" d="M563.928 416.023C563.928 416.023 565.067 389.915 562.654 383.527C555.52 364.642 549.792 334.133 549.792 311.428C549.792 288.724 569.788 250.505 569.788 241.215C569.788 231.924 564.386 223.378 569.788 223.378C575.191 223.378 601.168 263.66 610.48 276.192C619.792 288.724 635.154 326.241 649.528 349.86C663.903 373.478 708.803 425.947 712.953 429.582C717.103 433.216 708.803 445.129 712.953 450.93C717.103 456.731 714.126 490.769 718.114 490.769C722.101 490.769 723.966 461.565 723.966 461.565C723.966 461.565 742.566 491.943 742.566 498.837C742.566 505.731 745.638 523.023 747.76 514.377C749.883 505.731 742.566 461.565 742.566 461.565C742.566 461.565 749.883 482.7 749.883 490.769C749.883 498.837 756.759 485.135 756.759 473.35C756.759 461.565 742.566 443.201 742.566 436.391C742.566 429.582 699.402 356.751 699.402 356.751C699.402 356.751 679.078 333.582 670.631 318.486C662.184 303.39 614.06 213.161 614.06 213.161C614.06 213.161 609.148 190.772 585.901 177.628C562.654 164.484 546.671 164.227 539.793 152.014C532.915 139.802 542.298 118.335 542.298 118.335C542.298 118.335 561.34 112.192 569.788 90.3639C578.237 68.5358 576.798 28.7274 542.298 22.1072C507.798 15.487 494.027 37.1212 494.027 37.1212C494.027 37.1212 488.117 58.8091 482.627 63.6725C477.136 68.5358 484.379 103.517 489.203 103.517C494.027 103.517 495.779 140.781 489.203 148.407C482.627 156.033 461.932 169.296 461.932 169.296C461.932 169.296 441.998 171.495 429.59 192.328C417.181 213.161 398.789 257.831 398.789 257.831C398.789 257.831 366.927 304.371 360.46 311.428C353.992 318.486 301.21 419.41 301.21 419.41C301.21 419.41 277.791 456.292 270.613 467.182C263.435 478.073 255.946 490.769 263.28 490.769C270.613 490.769 281.658 467.182 281.658 467.182C281.658 467.182 276.327 479.007 276.327 484.888C276.327 490.769 277.217 496.646 281.658 495.34C286.1 494.035 281.658 488.217 281.658 480.783C281.658 473.35 286.393 467.182 286.393 467.182L294.167 484.888C294.167 484.888 301.248 487.104 297.708 477.143C294.167 467.182 294.167 464.528 294.167 461.565C294.167 458.602 301.21 467.182 301.21 467.182L310.666 473.35C310.666 473.35 305.74 469.136 305.74 461.565C305.74 453.994 315.991 448.201 315.991 444.265C315.991 440.329 315.991 432.1 315.991 432.1L324.373 419.41C324.373 419.41 350.63 376.077 360.46 367.815C370.289 359.554 391.621 336.279 395.205 327.382C398.789 318.486 416.038 291.259 416.038 291.259C416.038 291.259 421.278 265.985 421.278 261.908C421.278 257.831 429.59 213.161 429.59 213.161C429.59 213.161 421.278 298.09 421.278 315.073C421.278 325.458 423.124 316.444 421.278 327.382C420.104 334.333 431.174 337.755 433.21 338.878C435.615 340.205 457.458 357.44 497.851 381.313C516.134 392.119 563.928 416.023 563.928 416.023Z" fill="#FBDFC7"/>
<path fill-rule="evenodd" clip-rule="evenodd" d="M549.792 351.311C549.792 351.311 535.503 368.676 532.915 364.87C530.328 361.063 517.702 361.063 523.78 351.311C529.858 341.558 535.09 299.119 529.713 272.97C524.337 246.821 538.998 258.672 523.78 253.533C508.562 248.393 494.012 248.745 527.795 236.638C561.578 224.531 564.107 210.618 564.107 201.873C564.107 193.128 565.32 172.917 569.211 190.54C573.103 208.163 565.932 237.697 557.862 258.654C549.792 279.61 545.746 304.727 545.746 319.146C545.746 333.566 549.792 351.311 549.792 351.311Z" fill="#F3CFAA"/>
<path fill-rule="evenodd" clip-rule="evenodd" d="M718.64 484.875C718.64 484.875 720.288 457.017 716.62 451.475C712.953 445.932 714.601 438.892 716.62 433.353C718.64 427.814 726.475 431.328 722.465 417.549C718.455 403.769 685.26 358.923 672.569 349.51C659.878 340.096 660.779 322.384 653.775 322.384C646.771 322.384 647.2 323.252 649.528 333.818C651.857 344.384 673.851 363.984 677.918 370.155C681.986 376.326 699.068 402.658 704.614 408.924C710.16 415.191 718.537 422.275 716.62 427.814C714.703 433.353 709.747 435.497 709.747 445.932C709.747 456.366 714.022 459.913 714.022 464.686C714.022 469.459 711.423 476.486 714.022 478.68C716.62 480.874 718.64 484.875 718.64 484.875Z" fill="#F3CFAA"/>
<path fill-rule="evenodd" clip-rule="evenodd" d="M639.348 322.384C639.348 322.384 639.348 313.747 639.348 304.089C639.348 294.43 613.912 249.424 605.834 241.946C597.757 234.468 590.059 232.149 584.148 218.487C578.237 204.825 578.399 195.224 575.411 195.224C572.424 195.224 568.179 203.64 570.301 214.375C572.424 225.111 587.898 244.162 587.898 244.162C587.898 244.162 624.413 292.543 627.458 300.303C630.502 308.063 635.981 322.384 635.981 322.384H639.348Z" fill="#F3CFAA"/>
<path fill-rule="evenodd" clip-rule="evenodd" d="M425.645 214.375C425.645 214.375 405.651 269.516 396.417 290.027C387.183 310.538 394.264 321.879 388.926 327.884C383.588 333.889 378.204 320.517 366.785 332.524C355.366 344.531 331.856 392.068 323.09 403.629C314.323 415.191 293.691 445.917 288.158 451.577C282.625 457.237 281.658 462.184 281.658 462.184C281.658 462.184 267.047 471.571 267.047 475.771C267.047 479.97 263.28 485.77 263.28 485.77L273.875 475.771L278.928 469.459L281.658 475.771L286.393 462.184H291.151H295.855V451.577L300.045 457.456L305.74 456.567C305.74 456.567 313.331 444.229 313.331 440.251C313.331 436.273 313.331 427.814 313.331 427.814C313.331 427.814 337.187 399.164 340.824 394.965C344.462 390.766 359.749 371.797 363.267 365.554C366.785 359.312 382.682 343.415 388.926 337.467C395.17 331.519 403.617 312.011 403.617 306.157C403.617 300.303 417.968 292.151 419.556 280.339C421.145 268.526 425.645 214.375 425.645 214.375Z" fill="#F3CFAA"/>
<path fill-rule="evenodd" clip-rule="evenodd" d="M537.177 117.597C537.177 117.597 524.105 120.316 524.105 133.567C524.105 146.818 509.794 152.44 499.498 152.44C489.203 152.44 479.003 153.025 484.103 145.613C489.203 138.201 489.203 98.5184 489.203 98.5184C489.203 98.5184 479.003 86.3733 484.103 81.0942C489.203 75.815 498.29 70.5358 509.79 75.815C521.29 81.0942 523.533 95.6736 532.915 98.5184C542.298 101.363 557.285 104.847 549.792 104.847C542.298 104.847 537.177 117.597 537.177 117.597Z" fill="#F3CFAA"/>
<path fill-rule="evenodd" clip-rule="evenodd" d="M349.046 365.554L374.02 332.88C374.02 332.88 394.058 315.743 401.315 294.572C408.572 273.4 422.364 241.872 422.364 241.872V282.013L370.829 354.524C370.829 354.524 351.808 385.363 348.121 385.363C344.434 385.363 349.046 365.554 349.046 365.554Z" fill="#FF9240"/>
<path fill-rule="evenodd" clip-rule="evenodd" d="M570.301 231.187C570.301 231.187 564.184 261.247 558.002 274.552C551.821 287.857 546.272 316.677 546.272 326.383C546.272 336.089 535.21 332.506 538.754 282.013C542.298 231.52 560.373 233.414 562.24 223.917C564.107 214.42 570.301 223.573 570.301 227.38" fill="#FFBC40"/>
<path fill-rule="evenodd" clip-rule="evenodd" d="M720.344 420.161C720.344 420.161 700.02 384.726 688.265 369.625C676.511 354.524 660.267 337.934 660.267 345.435C660.267 352.935 680.496 369.625 680.496 369.625L690.769 389.063L716.106 426.278L720.344 420.161Z" fill="#FFBC40"/>
<path fill-rule="evenodd" clip-rule="evenodd" d="M489.203 146.443C489.203 146.443 507.846 149.857 501.632 131.448C495.417 113.039 505.899 108.456 507.207 108.456C508.515 108.456 521.383 103.457 521.383 103.457C521.383 103.457 502.858 76.4665 496.03 81.4648C489.203 86.4631 496.03 98.5184 496.03 98.5184L489.203 107.456V146.443Z" fill="#FFBC40"/>
<path d="M746.436 466.859C746.436 466.859 748.184 486.348 748.184 488.175C748.184 490.002 749.883 497.554 749.883 502.266C749.883 506.979 749.883 515.796 749.883 515.796C749.883 515.796 745.381 517.496 744.112 513.667C742.843 509.839 740.567 497.139 740.567 497.139L736.322 484.469C736.322 484.469 727.474 466.898 726.42 465.447C725.366 463.995 721.908 458.718 723.637 457.446C725.366 456.175 724.931 468.421 724.931 472.567C724.931 476.712 726.224 489.076 724.931 491.43C723.637 493.783 719.408 497.867 717.103 492.352C714.799 486.837 714.022 483.718 714.022 482.269C714.022 480.82 715.266 474.509 714.022 470.684C712.778 466.859 709.31 459.706 710.426 451.084C711.541 442.461 713.912 436.617 717.103 434.216C720.295 431.814 724.077 426.502 722.642 427.442C721.207 428.382 718.083 435.943 717.103 432.162C716.124 428.382 703.781 407.821 693.855 395.681C683.929 383.542 656.318 359.187 653.928 354.698C651.537 350.209 637.876 343.354 636.783 332.793C635.689 322.232 614.569 286.612 611.507 283.057C608.444 279.503 579.544 239.679 576.983 239.679C574.422 239.679 560.326 218.679 563.025 214.831C565.725 210.982 578.173 224.234 573.981 241.41C569.788 258.586 565.017 273.457 559.79 283.057C554.563 292.657 552.59 312.324 552.59 327.235C552.59 342.146 556.618 358.821 556.618 362.178C556.618 365.535 538.93 365.998 533.597 370.734C528.263 375.469 552.536 344.464 559.79 371.552C563.557 385.617 570.196 399.373 569.729 421.189C569.296 441.387 561.976 469.61 559.79 484.469C555.242 515.377 556.618 566.355 556.618 566.355" stroke="white" stroke-width="2.6" stroke-linecap="round" stroke-linejoin="round"/>
<path d="M733.346 480.211C733.346 480.211 730.099 482.959 724.587 486.11C719.075 489.261 720.276 491.43 724.931 491.43C729.586 491.43 736.656 486.11 736.656 486.11C736.656 486.11 732.65 492.445 728.79 494.706C724.931 496.967 724.243 499.721 724.587 501.101C724.931 502.481 730.095 501.101 732.221 501.101C734.347 501.101 737.49 498.155 738.708 497.186C739.926 496.218 741.588 493.187 741.588 495.911C741.588 498.636 734.877 509.305 734.877 511.364C734.877 513.424 737.02 515.376 738.708 515.376C740.396 515.376 742.5 511.364 742.5 511.364C742.5 511.364 754.67 499.936 754.67 494.706C754.67 489.477 756.583 480.926 756.583 477.515C756.583 474.105 757.618 466.938 754.67 461.719C751.722 456.5 742.597 433.653 741.588 429.253C740.579 424.853 737.807 417.559 737.807 417.559C737.807 417.559 737.605 416.836 732.221 408.851C726.837 400.866 705.623 357.499 701.548 351.784C697.472 346.069 678.093 323.483 677.18 321.934C676.266 320.384 674.647 311.914 671.477 308.316C668.306 304.719 641.74 257.015 641.74 255.963C641.74 254.91 622.523 225.144 618.853 220.466C615.183 215.787 608.967 192.981 601.645 183.747C594.324 174.513 575.438 167.602 575.438 167.602C575.438 167.602 556.378 163.158 550.375 157.302C544.372 151.445 542.298 146.392 542.298 142.777C542.298 139.162 543.714 124.897 543.714 123.595" stroke="white" stroke-width="2.6" stroke-linecap="round" stroke-linejoin="round"/>
<path d="M539.247 120.694C539.247 120.694 542.96 123.529 547.159 122.112C551.357 120.694 560.464 109.721 562.273 108.329C564.082 106.938 569.055 100.126 569.055 100.126C569.055 100.126 575.212 91.8375 576.672 88.6481C578.132 85.4588 580.649 75.0584 572.706 76.78C564.764 78.5017 555.598 89.9543 554.373 92.5903C553.148 95.2262 555.112 101.872 560.222 99.5866C565.331 97.3012 567.88 96.9661 567.88 96.9661C567.88 96.9661 572.706 95.1985 572.706 90.0112C572.706 84.8239 576.409 81.2511 571.677 82.1426C566.945 83.0341 560.494 90.0112 563.186 90.0112C565.878 90.0112 567.54 91.5591 562.273 92.5903C557.007 93.6214 561.473 95.1263 565.264 94.3738C569.055 93.6214 576.672 90.3424 576.672 72.9874C576.672 55.6325 570.894 44.1785 560.222 32.0342C549.55 19.8898 537.483 16.4866 530.159 16.4866C522.834 16.4866 513.463 18.6641 503.827 26.6841C494.192 34.7041 490.247 42.6443 490.247 45.2639C490.247 47.8836 491.504 52.1796 491.504 52.1796C491.504 52.1796 491.703 45.1903 495.922 44.1246C500.141 43.0589 507.868 42.8848 507.868 42.8848C507.868 42.8848 503.785 46.516 501.68 48.4533C499.574 50.3906 498.099 56.7606 499.889 56.7606C501.68 56.7606 503.364 56.7606 505.156 56.7606C506.949 56.7606 507.382 56.7606 510.444 56.7606C513.506 56.7606 518.779 56.8761 515.365 53.1301C511.95 49.384 511.909 49.0265 507.868 50.6031C503.827 52.1796 503.827 50.926 503.827 49.6897C503.827 48.4533 507.845 45.3644 510.444 44.1246C513.044 42.8848 514.806 42.9853 516.349 44.1246C517.892 45.2639 521.012 44.3905 527.116 42.8848C533.219 41.3791 537.472 42.0746 540.597 45.2639C543.721 48.4533 553.721 57.58 547.159 54.8798C540.597 52.1796 544.672 42.2549 534.242 39.3536C523.812 36.4523 518.832 42.8848 516.349 42.8848C513.866 42.8848 503.856 39.3536 499.889 39.3536C495.922 39.3536 489.04 44.4996 489.04 49.6897C489.04 54.8798 486.236 56.3875 485.148 58.1384C484.06 59.8892 481.294 64.3302 481.294 71.571C481.294 78.8118 480.583 90.6046 482.865 94.3738C485.148 98.143 487.884 107.385 490.247 107.385C492.609 107.385 491.462 102.931 489.04 96.9661C486.619 91.0009 488.387 81.1609 493.488 78.2238C498.589 75.2867 499.868 75.3362 505.156 76.78C510.444 78.2238 514.321 84.6357 518.794 84.6357C523.267 84.6357 527.464 78.2317 523.129 72.9874C518.794 67.7431 516.274 65.2706 515.365 65.2706C514.456 65.2706 511.151 59.8329 508.843 59.8329C506.534 59.8329 502.92 58.8984 499.889 59.8329C496.858 60.7675 493.488 65.2706 493.488 65.2706C493.488 65.2706 499.787 63.1595 503.827 63.1595C507.868 63.1595 512.747 65.2706 512.747 65.2706C512.747 65.2706 513.858 68.3689 508.843 68.3689C503.827 68.3689 506.248 67.2024 498.876 68.3689C491.504 69.5354 493.925 69.5354 498.876 69.5354C503.827 69.5354 513.825 72.9874 513.825 72.9874" stroke="white" stroke-width="2.6" stroke-linecap="round" stroke-linejoin="round"/>
<path d="M489.203 104.516C488.19 120.575 487.683 129.571 487.683 131.503C487.683 134.401 486.988 153.539 482.638 156.235C479.738 158.033 473.636 161.748 464.33 167.38C457.903 167.061 452.054 168.535 446.785 171.803C438.88 176.705 425.043 189.203 418.851 206.646C414.723 218.275 409.364 232.054 402.774 247.985L371.881 297.737C362.6 308.162 356.637 315.411 353.992 319.486C350.026 325.598 336.151 348.611 326.828 366.671C320.613 378.71 311.685 394.493 300.045 414.018L280.556 445.265C277.165 449.603 274.201 454.749 271.665 460.702C267.86 469.632 264.744 475.454 263.435 479.072C262.126 482.691 257.932 491.655 259.014 492.722C260.096 493.79 264.297 496.4 266.429 492.722C267.851 490.27 270.152 486.685 273.333 481.968L280.556 471.572C275.927 468.641 274.517 465.327 276.327 461.632C279.042 456.088 286.143 452.399 287.532 449.37C288.92 446.342 290.314 445.265 288.923 445.265C287.532 445.265 278.891 459.302 277.609 463.454C276.327 467.606 279.974 472.893 283.256 470.25C286.538 467.606 288.29 461.084 294.167 459.602C300.045 458.12 302.018 454.484 305.704 449.37C309.389 444.256 313.828 437.248 311.609 441.257C310.129 443.929 311.59 441.21 315.991 433.1C317.606 437.048 317.606 441.103 315.991 445.265C313.567 451.508 307.919 459.773 307.919 460.702C307.919 461.632 309.483 467.634 310.546 468.942C311.609 470.25 315.861 473.037 313.203 474.726C310.546 476.415 306.89 472.894 305.704 471.572C304.518 470.25 300.045 466.207 300.045 463.454C300.045 460.702 298.053 459.809 298.053 461.632C298.053 463.454 296.061 470.379 298.053 474.726C300.045 479.072 302.037 486.034 300.045 487.164C298.053 488.294 295.85 488.875 294.167 485.887C293.046 483.895 291.592 481.323 289.807 478.17L288.923 466.314L286.1 471.572C285.261 477.644 284.842 481.548 284.842 483.283C284.842 485.887 287.357 493.974 286.1 495.034C284.842 496.094 283.502 497.346 280.556 495.034C278.591 493.493 277.182 490.444 276.327 485.887C276.327 480.357 276.327 476.937 276.327 475.627C276.327 473.662 286.683 460.947 294.167 457.923C299.157 455.906 305.926 447.632 314.474 433.1L334.301 409.517L356.668 380.982C362.639 373.011 367.71 367.187 371.881 363.509C378.138 357.993 392.92 342.369 395.17 337.517C397.42 332.664 402.508 313.569 406.816 308.583C409.689 305.258 413.7 299.411 418.851 291.04C416.781 256.755 417.892 233.24 422.187 220.496C428.629 201.38 434.275 198.072 433.088 203.269C431.901 208.466 421.145 259.474 421.145 274.524C421.145 284.558 420.38 304.638 418.851 334.764C413.561 349.768 414.129 361.49 414.129 366.671C414.129 371.851 439.473 368.822 439.473 368.822C439.473 368.822 417.184 357.299 406.816 385.583C396.449 413.867 403.311 446.687 410.915 487.164" stroke="white" stroke-width="2.6" stroke-linecap="round" stroke-linejoin="round"/>
<path fill-rule="evenodd" clip-rule="evenodd" d="M866.419 715.428C866.419 715.428 798.832 701.955 757.759 664.309C716.686 626.662 621.409 569.611 558.04 547.309C447.919 508.551 366.819 547.309 292.456 547.309C218.094 547.309 141.948 525.344 100.787 496.34C59.627 467.335 0.87793 379.455 0.87793 379.455L0 690.261C0 690.261 121.189 721.25 210.202 674.266C299.216 627.282 422.348 595.756 481.19 602.345C504.966 605.008 547.721 605.035 612.655 627.282C630.537 633.408 706.134 682.376 757.759 702.257C787.349 713.652 866.419 715.428 866.419 715.428Z" fill="#231C31"/>
<path d="M559.97 106.858C579.468 118.905 599.189 131.873 618.941 145.701C792.903 267.489 903.372 409.845 865.682 463.663C827.991 517.481 656.413 462.381 482.452 340.594C308.49 218.806 198.021 76.45 235.711 22.6318C263.401 -16.9058 363.351 2.34121 483.421 63.6284" stroke="white" stroke-width="3"/>
<path d="M1919 747.236C1919 747.236 1792.35 612.129 1638.17 586.192C1483.99 560.254 1260.66 649.895 1110 694.67C959.342 739.445 799.022 698.111 717.765 638.186C636.508 578.261 548.919 500.463 410.813 523.886C272.708 547.308 276.406 571.988 170.099 571.988C63.793 571.988 0 358.933 0 358.933" stroke="white" stroke-width="3"/>
<path fill-rule="evenodd" clip-rule="evenodd" d="M772.356 601.445C768.029 606.084 760.757 606.335 756.113 602.005C751.468 597.674 751.211 590.403 755.538 585.764C759.865 581.125 767.138 580.874 771.782 585.204C776.426 589.534 776.683 596.805 772.356 601.445ZM222.604 439.559C218.277 444.198 211.005 444.449 206.36 440.118C201.716 435.788 201.459 428.517 205.786 423.878C210.113 419.239 217.385 418.988 222.03 423.318C226.674 427.648 226.931 434.919 222.604 439.559ZM133.497 341.56C129.17 346.199 121.897 346.45 117.253 342.12C112.608 337.789 112.351 330.518 116.678 325.879C121.005 321.24 128.278 320.989 132.922 325.319C137.566 329.649 137.823 336.921 133.497 341.56ZM688.722 538.518C684.395 543.158 677.122 543.408 672.478 539.078C667.834 534.748 667.577 527.477 671.904 522.838C676.231 518.198 683.503 517.948 688.148 522.278C692.792 526.608 693.049 533.879 688.722 538.518ZM507.929 454.86C503.602 459.5 503.86 466.771 508.504 471.101C513.148 475.431 520.421 475.18 524.748 470.541C529.075 465.902 528.818 458.631 524.173 454.301C519.529 449.97 512.256 450.221 507.929 454.86ZM487.553 461.199C484.731 464.225 484.899 468.967 487.928 471.791C490.957 474.615 495.7 474.452 498.522 471.426C501.344 468.4 501.176 463.658 498.147 460.834C495.118 458.01 490.375 458.174 487.553 461.199ZM557.743 500.531C553.416 505.17 546.143 505.421 541.499 501.091C536.855 496.761 536.597 489.49 540.924 484.85C545.251 480.211 552.524 479.96 557.168 484.29C561.812 488.621 562.07 495.892 557.743 500.531ZM574.488 474.521C572.23 476.941 568.436 477.072 566.013 474.813C563.59 472.554 563.455 468.76 565.713 466.34C567.97 463.919 571.765 463.788 574.188 466.048C576.611 468.307 576.745 472.1 574.488 474.521ZM615.481 454.528C613.224 456.948 609.429 457.079 607.006 454.82C604.583 452.56 604.449 448.767 606.706 446.346C608.964 443.926 612.758 443.795 615.181 446.054C617.605 448.313 617.739 452.107 615.481 454.528ZM620.48 470.522C618.223 472.943 614.428 473.073 612.005 470.814C609.582 468.555 609.448 464.761 611.706 462.341C613.963 459.921 617.758 459.79 620.181 462.049C622.604 464.308 622.738 468.102 620.48 470.522ZM479.909 501.858C475.771 506.296 468.814 506.536 464.372 502.394C459.929 498.252 459.683 491.297 463.822 486.859C467.961 482.422 474.918 482.182 479.36 486.324C483.802 490.466 484.048 497.421 479.909 501.858ZM456.32 486.21C454.063 488.631 450.268 488.761 447.845 486.502C445.422 484.243 445.288 480.449 447.545 478.029C449.803 475.608 453.597 475.478 456.02 477.737C458.443 479.996 458.578 483.79 456.32 486.21ZM408.156 470.324C403.829 474.963 396.556 475.214 391.912 470.884C387.267 466.554 387.01 459.283 391.337 454.643C395.664 450.004 402.937 449.753 407.581 454.084C412.225 458.414 412.483 465.685 408.156 470.324ZM284.41 465.637C280.083 470.276 272.81 470.526 268.166 466.196C263.522 461.866 263.265 454.595 267.592 449.956C271.919 445.317 279.191 445.066 283.835 449.396C288.48 453.726 288.737 460.997 284.41 465.637ZM219.651 373.834C215.324 378.473 208.051 378.724 203.407 374.393C198.762 370.063 198.505 362.792 202.832 358.153C207.159 353.514 214.432 353.263 219.076 357.593C223.72 361.923 223.977 369.194 219.651 373.834ZM755.082 570.089C753.012 572.308 749.534 572.428 747.313 570.357C745.092 568.286 744.969 564.808 747.038 562.589C749.108 560.371 752.586 560.251 754.807 562.322C757.028 564.393 757.151 567.87 755.082 570.089ZM620.67 524.732C618.6 526.951 615.122 527.071 612.901 525C610.68 522.929 610.557 519.451 612.626 517.232C614.696 515.014 618.174 514.894 620.395 516.965C622.616 519.036 622.739 522.513 620.67 524.732ZM653.754 566.807C651.685 569.025 648.207 569.145 645.985 567.074C643.764 565.003 643.641 561.526 645.711 559.307C647.78 557.088 651.258 556.969 653.479 559.039C655.701 561.11 655.824 564.588 653.754 566.807ZM712.333 552.945C710.264 555.163 706.786 555.283 704.564 553.212C702.343 551.141 702.22 547.664 704.29 545.445C706.359 543.226 709.837 543.107 712.058 545.177C714.28 547.248 714.403 550.726 712.333 552.945ZM441.976 418.631C439.907 420.85 436.429 420.97 434.207 418.899C431.986 416.828 431.863 413.35 433.933 411.131C436.002 408.913 439.48 408.793 441.701 410.864C443.923 412.935 444.046 416.412 441.976 418.631ZM216.972 487.243C214.903 489.461 211.424 489.581 209.203 487.51C206.982 485.439 206.859 481.962 208.928 479.743C210.998 477.524 214.476 477.404 216.697 479.475C218.919 481.546 219.042 485.024 216.972 487.243ZM321.52 354.025C319.45 356.244 315.972 356.364 313.751 354.293C311.53 352.222 311.406 348.744 313.476 346.526C315.545 344.307 319.024 344.187 321.245 346.258C323.466 348.329 323.589 351.806 321.52 354.025ZM794.254 641.297C792.185 643.516 788.707 643.636 786.486 641.565C784.264 639.494 784.141 636.016 786.211 633.798C788.28 631.579 791.758 631.459 793.98 633.53C796.201 635.601 796.324 639.078 794.254 641.297ZM204.635 389.933C202.565 392.152 199.087 392.272 196.866 390.201C194.645 388.13 194.522 384.653 196.591 382.434C198.661 380.215 202.139 380.095 204.36 382.166C206.581 384.237 206.704 387.714 204.635 389.933ZM167.902 392.672C165.833 394.891 162.354 395.011 160.133 392.94C157.912 390.869 157.789 387.392 159.859 385.173C161.928 382.954 165.406 382.834 167.627 384.905C169.849 386.976 169.972 390.454 167.902 392.672ZM266.327 433.722C264.258 435.941 260.78 436.061 258.558 433.99C256.337 431.919 256.214 428.441 258.284 426.222C260.353 424.004 263.831 423.884 266.053 425.955C268.274 428.026 268.397 431.503 266.327 433.722ZM114.89 308.797C112.82 311.016 109.342 311.136 107.121 309.065C104.9 306.994 104.777 303.517 106.846 301.298C108.916 299.079 112.394 298.959 114.615 301.03C116.836 303.101 116.959 306.579 114.89 308.797ZM342.425 500.609C340.355 502.828 336.877 502.948 334.656 500.877C332.435 498.806 332.312 495.329 334.381 493.11C336.45 490.891 339.929 490.771 342.15 492.842C344.371 494.913 344.494 498.391 342.425 500.609ZM720.832 591.108C718.763 593.326 715.285 593.446 713.063 591.375C710.842 589.304 710.719 585.827 712.789 583.608C714.858 581.389 718.336 581.269 720.557 583.34C722.779 585.411 722.902 588.889 720.832 591.108ZM666.036 501.388C663.967 503.607 660.489 503.727 658.267 501.656C656.046 499.585 655.923 496.108 657.993 493.889C660.062 491.67 663.54 491.55 665.761 493.621C667.983 495.692 668.106 499.17 666.036 501.388ZM633.219 536.486C631.15 538.705 627.671 538.825 625.45 536.754C623.229 534.683 623.106 531.206 625.175 528.987C627.245 526.768 630.723 526.648 632.944 528.719C635.165 530.79 635.289 534.267 633.219 536.486ZM832.9 642.08C830.83 644.299 827.352 644.419 825.131 642.348C822.91 640.277 822.787 636.799 824.856 634.58C826.926 632.362 830.404 632.242 832.625 634.313C834.846 636.384 834.969 639.861 832.9 642.08ZM229.899 304.214C227.83 306.433 224.351 306.553 222.13 304.482C219.909 302.411 219.786 298.933 221.855 296.715C223.925 294.496 227.403 294.376 229.624 296.447C231.845 298.518 231.968 301.995 229.899 304.214ZM250.366 464.027C248.297 466.246 244.818 466.366 242.597 464.295C240.376 462.224 240.253 458.747 242.322 456.528C244.392 454.309 247.87 454.189 250.091 456.26C252.312 458.331 252.435 461.808 250.366 464.027ZM243.994 516.465C241.924 518.683 238.446 518.803 236.225 516.732C234.004 514.661 233.881 511.184 235.95 508.965C238.02 506.746 241.498 506.626 243.719 508.697C245.94 510.768 246.063 514.246 243.994 516.465ZM810.952 650.004C808.13 653.03 803.387 653.193 800.358 650.369C797.329 647.545 797.161 642.803 799.983 639.777C802.805 636.752 807.548 636.588 810.577 639.412C813.606 642.236 813.774 646.978 810.952 650.004ZM733.824 539.066C731.002 542.091 726.259 542.255 723.23 539.431C720.201 536.607 720.033 531.865 722.855 528.839C725.677 525.813 730.42 525.65 733.449 528.474C736.478 531.298 736.646 536.04 733.824 539.066ZM385.171 446.823C382.349 449.849 377.606 450.012 374.577 447.188C371.548 444.364 371.38 439.622 374.202 436.597C377.024 433.571 381.767 433.408 384.796 436.232C387.825 439.056 387.993 443.798 385.171 446.823ZM797.63 621.852C794.808 624.878 790.065 625.041 787.036 622.217C784.007 619.393 783.84 614.651 786.662 611.626C789.484 608.6 794.227 608.437 797.255 611.261C800.284 614.085 800.452 618.827 797.63 621.852ZM670.228 117.485C669.099 118.696 667.202 118.761 665.991 117.632C664.779 116.502 664.712 114.605 665.841 113.395C666.969 112.185 668.867 112.119 670.078 113.249C671.29 114.378 671.357 116.275 670.228 117.485ZM742.583 600.183C741.455 601.393 739.557 601.458 738.346 600.329C737.134 599.199 737.067 597.302 738.196 596.092C739.325 594.882 741.222 594.816 742.434 595.946C743.645 597.076 743.712 598.973 742.583 600.183ZM850.054 655.261C851.371 653.849 851.293 651.636 849.879 650.318C848.466 649 846.252 649.077 844.936 650.489C843.619 651.9 843.697 654.113 845.11 655.431C846.524 656.749 848.737 656.673 850.054 655.261ZM124.373 401.233C125.69 399.821 125.612 397.608 124.198 396.29C122.785 394.972 120.571 395.048 119.255 396.46C117.938 397.872 118.016 400.085 119.429 401.403C120.843 402.721 123.056 402.645 124.373 401.233ZM191.915 289.24C193.232 287.828 193.154 285.615 191.74 284.297C190.327 282.979 188.113 283.055 186.796 284.467C185.479 285.879 185.558 288.092 186.971 289.41C188.385 290.728 190.598 290.652 191.915 289.24ZM303.357 420.404C304.674 418.992 304.596 416.779 303.182 415.461C301.769 414.143 299.555 414.219 298.238 415.631C296.921 417.043 297 419.256 298.413 420.574C299.827 421.892 302.04 421.816 303.357 420.404ZM440.29 432.531C441.607 431.119 441.528 428.906 440.115 427.588C438.701 426.271 436.488 426.347 435.171 427.759C433.854 429.171 433.933 431.384 435.346 432.702C436.759 434.019 438.973 433.943 440.29 432.531ZM174.785 446.856C176.102 445.444 176.023 443.231 174.61 441.913C173.196 440.595 170.983 440.672 169.666 442.084C168.349 443.496 168.428 445.708 169.841 447.026C171.255 448.344 173.468 448.268 174.785 446.856ZM264.372 399.173C265.689 397.761 265.611 395.548 264.198 394.23C262.784 392.913 260.571 392.989 259.254 394.401C257.937 395.813 258.015 398.026 259.429 399.344C260.842 400.661 263.055 400.585 264.372 399.173ZM172.421 339.456C173.738 338.044 173.66 335.831 172.246 334.513C170.833 333.196 168.619 333.272 167.302 334.684C165.986 336.096 166.064 338.309 167.477 339.627C168.891 340.944 171.104 340.868 172.421 339.456Z" fill="white"/>
<ellipse cx="44.9929" cy="44.4851" rx="44.9929" ry="44.4851" transform="matrix(-1 0 0 1 885.739 185.43)" fill="#FFBC40"/>
<mask id="mask0_0_536" style="mask-type:luminance" maskUnits="userSpaceOnUse" x="795" y="185" width="91" height="90">
<ellipse cx="44.9929" cy="44.4851" rx="44.9929" ry="44.4851" transform="matrix(-1 0 0 1 885.739 185.43)" fill="white"/>
</mask>
<g mask="url(#mask0_0_536)">
<path fill-rule="evenodd" clip-rule="evenodd" d="M871.741 198.677C871.741 198.677 870.462 212.179 840.494 216.299C810.527 220.418 808.442 212.179 800.797 216.299C793.152 220.418 795.177 220.418 795.177 220.418L800.797 192.87L819.536 178.369C819.536 178.369 830.095 176.262 837.39 178.369C844.686 180.476 853.897 181.314 859.193 183.421C864.489 185.528 871.741 198.677 871.741 198.677Z" fill="#F35B1F"/>
<path fill-rule="evenodd" clip-rule="evenodd" d="M883.887 214.42C883.887 214.42 877.155 227.614 859.716 232.616C842.277 237.618 827.941 230.355 813.534 232.616C799.127 234.877 792.753 242.351 792.753 242.351L796.537 253.407C796.537 253.407 805.591 245.717 821.489 245.717C837.386 245.717 849.855 249.083 866.871 245.717C883.887 242.351 885.754 233.914 885.754 233.914L888.738 219.805L883.887 214.42Z" fill="#F35B1F"/>
<path fill-rule="evenodd" clip-rule="evenodd" d="M867.97 264.567C867.97 264.567 863.12 262.241 852.967 264.567C842.814 266.893 836.152 268.837 824.96 267.865C813.767 266.893 811.75 264.567 811.75 264.567L831.457 279.398L850.567 277.709L869.741 267.865L867.97 264.567Z" fill="#F35B1F"/>
<path fill-rule="evenodd" clip-rule="evenodd" d="M840.746 274.37C840.746 274.37 820.777 261.158 820.777 234.153C820.777 207.148 837.533 185.405 837.533 185.405C837.533 185.405 830.129 181.456 820.777 185.405C811.424 189.354 794.326 208.893 792.508 216.716C790.691 224.539 791.596 260.535 801.51 268.805C811.424 277.075 833.388 279.398 833.388 279.398L840.746 274.37Z" fill="black" fill-opacity="0.141035"/>
</g>
<ellipse cx="32.9948" cy="32.4891" rx="32.9948" ry="32.4891" transform="matrix(-1 0 0 1 813.75 103.457)" fill="#FFBC40"/>
<mask id="mask1_0_536" style="mask-type:luminance" maskUnits="userSpaceOnUse" x="747" y="103" width="67" height="66">
<ellipse cx="32.9948" cy="32.4891" rx="32.9948" ry="32.4891" transform="matrix(-1 0 0 1 813.75 103.457)" fill="white"/>
</mask>
<g mask="url(#mask1_0_536)">
<path fill-rule="evenodd" clip-rule="evenodd" d="M803.752 112.775C803.752 112.775 802.822 122.509 781.027 125.479C759.233 128.449 757.716 122.509 752.156 125.479C746.596 128.449 748.069 128.449 748.069 128.449L752.156 108.589L765.784 98.1344C765.784 98.1344 773.464 96.6155 778.77 98.1344C784.075 99.6534 790.774 100.257 794.626 101.776C798.478 103.295 803.752 112.775 803.752 112.775Z" fill="#F35B1F"/>
<path fill-rule="evenodd" clip-rule="evenodd" d="M812.212 124.45C812.212 124.45 807.304 133.923 794.588 137.514C781.872 141.105 771.418 135.891 760.913 137.514C750.408 139.137 745.761 144.503 745.761 144.503L748.52 152.441C748.52 152.441 755.121 146.92 766.714 146.92C778.306 146.92 787.397 149.337 799.805 146.92C812.212 144.503 813.574 138.446 813.574 138.446L815.75 128.316L812.212 124.45Z" fill="#F35B1F"/>
<path fill-rule="evenodd" clip-rule="evenodd" d="M800.469 161.311C800.469 161.311 796.957 159.566 789.605 161.311C782.253 163.055 777.429 164.513 769.324 163.784C761.219 163.055 759.759 161.311 759.759 161.311L774.029 172.434L787.867 171.167L801.752 163.784L800.469 161.311Z" fill="#F35B1F"/>
<path fill-rule="evenodd" clip-rule="evenodd" d="M780.755 168.768C780.755 168.768 766.084 159.134 766.084 139.443C766.084 119.751 778.395 103.897 778.395 103.897C778.395 103.897 772.955 101.018 766.084 103.897C759.213 106.777 746.651 121.025 745.316 126.729C743.981 132.433 744.646 158.68 751.929 164.71C759.213 170.74 775.35 172.434 775.35 172.434L780.755 168.768Z" fill="black" fill-opacity="0.141035"/>
</g>
<ellipse cx="22.4965" cy="21.9926" rx="22.4965" ry="21.9926" transform="matrix(-1 0 0 1 716.765 70.4685)" fill="#FFBC40"/>
<mask id="mask2_0_536" style="mask-type:luminance" maskUnits="userSpaceOnUse" x="671" y="70" width="46" height="45">
<ellipse cx="22.4965" cy="21.9926" rx="22.4965" ry="21.9926" transform="matrix(-1 0 0 1 716.765 70.4685)" fill="white"/>
</mask>
<g mask="url(#mask2_0_536)">
<path fill-rule="evenodd" clip-rule="evenodd" d="M709.766 76.8448C709.766 76.8448 709.135 83.4391 694.346 85.451C679.557 87.4628 678.528 83.4391 674.755 85.451C670.982 87.4628 671.982 87.4628 671.982 87.4628L674.755 74.0091L684.003 66.9272C684.003 66.9272 689.214 65.8982 692.814 66.9272C696.415 67.9561 700.96 68.3653 703.574 69.3942C706.188 70.4232 709.766 76.8448 709.766 76.8448Z" fill="#F35B1F"/>
<path fill-rule="evenodd" clip-rule="evenodd" d="M715.39 84.4639C715.39 84.4639 712.094 90.8916 703.556 93.3285C695.018 95.7655 688 92.227 680.946 93.3285C673.893 94.4301 670.773 98.0712 670.773 98.0712L672.625 103.457C672.625 103.457 677.058 99.7111 684.841 99.7111C692.624 99.7111 698.729 101.351 707.059 99.7111C715.39 98.0712 716.304 93.9607 716.304 93.9607L717.765 87.0871L715.39 84.4639Z" fill="#F35B1F"/>
<path fill-rule="evenodd" clip-rule="evenodd" d="M707.911 110.037C707.911 110.037 705.57 108.874 700.669 110.037C695.767 111.2 692.551 112.172 687.148 111.686C681.744 111.2 680.771 110.037 680.771 110.037L690.285 117.453L699.51 116.608L708.767 111.686L707.911 110.037Z" fill="#F35B1F"/>
<path fill-rule="evenodd" clip-rule="evenodd" d="M693.769 114.991C693.769 114.991 683.988 108.523 683.988 95.3013C683.988 82.08 692.195 71.4352 692.195 71.4352C692.195 71.4352 688.569 69.5019 683.988 71.4352C679.407 73.3685 671.033 82.9347 670.143 86.7646C669.253 90.5945 669.696 108.217 674.552 112.266C679.407 116.315 690.165 117.453 690.165 117.453L693.769 114.991Z" fill="black" fill-opacity="0.141035"/>
</g>
<ellipse cx="44.9929" cy="44.4851" rx="44.9929" ry="44.4851" transform="matrix(-0.866025 -0.5 -0.5 0.866025 287.05 229.881)" fill="#42CAE9"/>
<mask id="mask3_0_536" style="mask-type:luminance" maskUnits="userSpaceOnUse" x="180" y="201" width="91" height="90">
<ellipse cx="44.9929" cy="44.4851" rx="44.9929" ry="44.4851" transform="matrix(-0.866025 -0.5 -0.5 0.866025 287.05 229.881)" fill="white"/>
</mask>
<g mask="url(#mask3_0_536)">
<path fill-rule="evenodd" clip-rule="evenodd" d="M268.305 234.354C268.305 234.354 260.445 245.408 232.433 233.992C204.421 222.576 206.734 214.398 198.054 214.143C189.374 213.888 191.127 214.901 191.127 214.901L209.768 193.853L233.247 190.664C233.247 190.664 243.445 194.119 248.71 199.592C253.974 205.064 261.533 210.395 265.066 214.868C268.599 219.341 268.305 234.354 268.305 234.354Z" fill="#FFBC40"/>
<path fill-rule="evenodd" clip-rule="evenodd" d="M270.951 254.061C270.951 254.061 258.524 262.121 240.921 257.734C223.317 253.346 214.533 239.888 200.926 234.643C187.319 229.397 178.062 232.683 178.062 232.683L175.811 244.15C175.811 244.15 187.496 242.017 201.264 249.966C215.032 257.915 224.147 267.064 240.567 272.657C256.986 278.25 262.822 271.877 262.822 271.877L272.461 261.15L270.951 254.061Z" fill="#FFBC40"/>
<path fill-rule="evenodd" clip-rule="evenodd" d="M232.093 289.531C232.093 289.531 229.056 285.091 219.101 282.03C209.145 278.968 202.404 277.32 193.196 270.882C183.989 264.444 183.406 261.421 183.406 261.421L193.057 284.119L210.451 292.211L231.979 293.273L232.093 289.531Z" fill="#FFBC40"/>
<path fill-rule="evenodd" clip-rule="evenodd" d="M203.615 284.409C203.615 284.409 192.927 262.983 206.43 239.595C219.933 216.208 245.315 205.757 245.315 205.757C245.315 205.757 240.878 198.635 230.804 197.378C220.73 196.122 196.152 204.494 190.667 210.361C185.182 216.227 167.968 247.852 172.419 259.972C176.869 272.091 194.729 285.085 194.729 285.085L203.615 284.409Z" fill="black" fill-opacity="0.141035"/>
</g>
<ellipse cx="34.4946" cy="33.9886" rx="34.4946" ry="33.9886" transform="matrix(-0.866025 -0.5 -0.5 0.866025 381.193 296.201)" fill="#FFBC40"/>
<mask id="mask4_0_536" style="mask-type:luminance" maskUnits="userSpaceOnUse" x="299" y="274" width="70" height="69">
<ellipse cx="34.4946" cy="33.9886" rx="34.4946" ry="33.9886" transform="matrix(-0.866025 -0.5 -0.5 0.866025 381.193 296.201)" fill="white"/>
</mask>
<g mask="url(#mask4_0_536)">
<path fill-rule="evenodd" clip-rule="evenodd" d="M366.962 299.478C366.962 299.478 360.932 307.963 339.465 299.219C317.999 290.476 319.776 284.201 313.123 284.011C306.469 283.82 307.813 284.595 307.813 284.595L322.113 268.439L340.112 265.981C340.112 265.981 347.927 268.626 351.96 272.821C355.992 277.017 361.783 281.102 364.489 284.532C367.195 287.961 366.962 299.478 366.962 299.478Z" fill="#42CAE9"/>
<path fill-rule="evenodd" clip-rule="evenodd" d="M368.234 313.804C368.234 313.804 358.726 320.034 345.318 316.736C331.909 313.438 325.262 303.149 314.905 299.177C304.548 295.206 297.476 297.761 297.476 297.761L295.716 306.565C295.716 306.565 304.635 304.885 315.105 310.929C325.574 316.974 332.49 323.957 344.991 328.184C357.491 332.411 361.966 327.5 361.966 327.5L369.358 319.236L368.234 313.804Z" fill="#42CAE9"/>
<path fill-rule="evenodd" clip-rule="evenodd" d="M339.279 341.267C339.279 341.267 336.965 337.916 329.423 335.576C321.88 333.236 316.775 331.971 309.786 327.095C302.796 322.218 302.344 319.942 302.344 319.942L309.729 337.051L322.918 343.202L339.206 344.081L339.279 341.267Z" fill="#42CAE9"/>
<path fill-rule="evenodd" clip-rule="evenodd" d="M317.015 337.426C317.015 337.426 308.98 321.187 319.247 303.402C329.515 285.618 348.74 277.626 348.74 277.626C348.74 277.626 345.399 272.23 337.782 271.3C330.165 270.369 311.554 276.781 307.391 281.247C303.229 285.713 290.135 309.759 293.473 318.948C296.812 328.137 310.292 337.96 310.292 337.96L317.015 337.426Z" fill="black" fill-opacity="0.141035"/>
</g>
<ellipse cx="23.9962" cy="23.4921" rx="23.9962" ry="23.4921" transform="matrix(-0.866025 -0.5 -0.5 0.866025 476.336 338.529)" fill="#FFBC40"/>
<mask id="mask5_0_536" style="mask-type:luminance" maskUnits="userSpaceOnUse" x="419" y="323" width="49" height="48">
<ellipse cx="23.9962" cy="23.4921" rx="23.9962" ry="23.4921" transform="matrix(-0.866025 -0.5 -0.5 0.866025 476.336 338.529)" fill="white"/>
</mask>
<g mask="url(#mask5_0_536)">
<path fill-rule="evenodd" clip-rule="evenodd" d="M466.123 340.014C466.123 340.014 461.922 345.928 447.002 339.858C432.081 333.788 433.323 329.416 428.696 329.289C424.069 329.162 425.003 329.701 425.003 329.701L434.962 318.437L447.481 316.708C447.481 316.708 452.914 318.544 455.714 321.462C458.515 324.38 462.539 327.221 464.417 329.606C466.296 331.992 466.123 340.014 466.123 340.014Z" fill="#42CAE9"/>
<path fill-rule="evenodd" clip-rule="evenodd" d="M467.516 350.02C467.516 350.02 460.927 354.419 451.714 352.21C442.502 350.002 437.991 342.881 430.884 340.184C423.777 337.486 418.89 339.312 418.89 339.312L417.62 345.453C417.62 345.453 423.774 344.225 430.945 348.365C438.115 352.505 442.833 357.321 451.415 360.183C459.996 363.045 463.11 359.596 463.11 359.596L468.254 353.794L467.516 350.02Z" fill="#42CAE9"/>
<path fill-rule="evenodd" clip-rule="evenodd" d="M446.715 369.451C446.715 369.451 445.124 367.189 439.995 365.571C434.865 363.952 431.395 363.071 426.625 359.756C421.854 356.44 421.532 354.911 421.532 354.911L426.652 366.43L435.634 370.641L446.684 371.337L446.715 369.451Z" fill="#42CAE9"/>
<path fill-rule="evenodd" clip-rule="evenodd" d="M431.88 366.251C431.88 366.251 426.145 354.994 433.177 342.813C440.21 330.632 453.572 325.27 453.572 325.27C453.572 325.27 451.198 321.525 445.872 320.825C440.546 320.125 427.6 324.402 424.728 327.448C421.856 330.495 412.898 346.971 415.3 353.331C417.702 359.692 427.19 366.567 427.19 366.567L431.88 366.251Z" fill="black" fill-opacity="0.141035"/>
</g>
</svg>
