<svg width="13" height="13" viewBox="0 0 13 13" fill="none" xmlns="http://www.w3.org/2000/svg">
<path d="M6.50005 7.69999C5.83731 7.69999 5.30005 7.16273 5.30005 6.49999C5.30005 5.83725 5.83731 5.29999 6.50005 5.29999C7.16279 5.29999 7.70005 5.83725 7.70005 6.49999C7.70005 7.16273 7.16279 7.69999 6.50005 7.69999Z" fill="#FFBC40"/>
<path d="M6.5 11.9C3.51766 11.9 1.1 9.48234 1.1 6.5C1.1 3.51766 3.51766 1.1 6.5 1.1C9.48234 1.1 11.9 3.51766 11.9 6.5C11.9 9.48234 9.48234 11.9 6.5 11.9Z" stroke="#FFBC40" stroke-width="1.2"/>
</svg>
