<svg width="11" height="15" viewBox="0 0 11 15" fill="none" xmlns="http://www.w3.org/2000/svg">
<g id="13">
<path id="Path" d="M1.5 0.75C1.5 2.95914 3.29086 4.75 5.5 4.75C7.70914 4.75 9.5 2.95914 9.5 0.75" stroke="#FFBC40" stroke-width="1.2"/>
<path id="Path 51" d="M5.47949 1.99292V14.25" stroke="#FFBC40" stroke-width="1.2"/>
<path id="Path 51 Copy" d="M2.48975 11.2398L8.48975 11.2602" stroke="#FFBC40" stroke-width="1.2"/>
</g>
</svg>
