<svg width="9" height="13" viewBox="0 0 9 13" fill="none" xmlns="http://www.w3.org/2000/svg">
<g id="3">
<path id="Path" d="M5.99942 1.1C6.63179 1.1 7.23807 1.2085 7.80119 1.40779C6.33482 2.61754 5.39942 4.44931 5.39942 6.5C5.39942 8.55072 6.33485 10.3825 7.80058 11.5924C7.23785 11.7915 6.63169 11.9 5.99942 11.9C3.01746 11.9 0.6 9.48239 0.6 6.5C0.6 3.51761 3.01746 1.1 5.99942 1.1Z" stroke="#FFBC40" stroke-width="1.2"/>
</g>
</svg>
