<svg width="6" height="5" viewBox="0 0 6 5" fill="none" xmlns="http://www.w3.org/2000/svg">
<path id="Path 139 Copy 2" fill-rule="evenodd" clip-rule="evenodd" d="M0 0.676221H6L3 4.32379L0 0.676221Z" fill="#3EC6FF"/>
</svg>
