<svg width="190" height="88" viewBox="0 0 190 88" fill="none" xmlns="http://www.w3.org/2000/svg">
<g id="bg illustration">
<path id="Combined Shape" fill-rule="evenodd" clip-rule="evenodd" d="M190 -62H0V59.8394C5.63409 68.492 19.614 88 31.134 88C37.671 88 48.2453 81.9225 60.2366 75.0305C74.6478 66.7478 91.1055 57.2889 105.061 55.7896C150.866 50.8684 190 55.0808 190 55.0808V-62Z" fill="#6657EF"/>
<path id="Path 575" fill-rule="evenodd" clip-rule="evenodd" d="M0 15.1325C0 15.1325 7.02196 71.2922 32.915 68.9025C58.808 66.5127 69.4654 36.2413 125.433 37.8354C181.4 39.4295 190 37.8354 190 37.8354V20.5095C190 20.5095 77.2896 27.6789 62.4702 20.5095C47.6508 13.3402 18.0059 -24 9.00296 -24C0 -24 0 -19.2014 0 -19.2014L0 15.1325Z" fill="#EE8436"/>
<path id="Path 576" fill-rule="evenodd" clip-rule="evenodd" d="M190 4.89891C190 4.89891 112.662 13.1011 91.8132 4.89891C70.9641 -3.30327 48.4198 -22.4811 33.432 -29.584C18.4442 -36.6869 0 -39.2304 0 -39.2304L0.601266 -62H38.5516C38.5516 -62 80.8417 -42.4317 99.5997 -22.396C118.358 -2.36018 190 -17.038 190 -17.038V4.89891Z" fill="#EE8436"/>
</g>
</svg>
