<svg width="15" height="15" viewBox="0 0 15 15" fill="none" xmlns="http://www.w3.org/2000/svg">
<path d="M8.99942 2.1C9.63179 2.1 10.2381 2.2085 10.8012 2.40779C9.33482 3.61754 8.39942 5.44931 8.39942 7.5C8.39942 9.55072 9.33485 11.3825 10.8006 12.5924C10.2379 12.7915 9.63169 12.9 8.99942 12.9C6.01746 12.9 3.6 10.4824 3.6 7.5C3.6 4.51761 6.01746 2.1 8.99942 2.1Z" stroke="#FFBC40" stroke-width="1.2"/>
</svg>
