<svg width="6" height="7" viewBox="0 0 6 7" fill="none" xmlns="http://www.w3.org/2000/svg">
<path id="Star" fill-rule="evenodd" clip-rule="evenodd" d="M3.52861 6.64243C3.39989 6.9452 3.05887 7.08242 2.76692 6.94892C2.63498 6.88859 2.52956 6.77926 2.47139 6.64243C2.15664 5.90212 1.41578 5.45852 0.640212 5.54599C0.323017 5.58176 0.0379172 5.34408 0.00342495 5.01512C-0.0121634 4.86645 0.0264214 4.71711 0.111598 4.59644C0.572421 3.9436 0.572421 3.0564 0.111598 2.40356C-0.0768711 2.13656 -0.0209481 1.76166 0.236505 1.5662C0.352859 1.47786 0.496859 1.43785 0.640212 1.45401C1.41578 1.54148 2.15664 1.09788 2.47139 0.357572C2.60011 0.0547982 2.94113 -0.0824244 3.23308 0.0510767C3.36502 0.111411 3.47044 0.220737 3.52861 0.357572C3.84336 1.09788 4.58422 1.54148 5.35979 1.45401C5.67698 1.41824 5.96208 1.65592 5.99657 1.98488C6.01216 2.13355 5.97358 2.28289 5.8884 2.40356C5.42758 3.0564 5.42758 3.9436 5.8884 4.59644C6.07687 4.86344 6.02095 5.23834 5.76349 5.4338C5.64714 5.52214 5.50314 5.56215 5.35979 5.54599C4.58422 5.45852 3.84336 5.90212 3.52861 6.64243Z" fill="#FFBC40"/>
</svg>
